%!PS-Adobe-3.0 EPSF-3.0
%%Title: glps_renderer figure
%%Creator: GL2PS 1.3.8, (C) 1999-2012 C. Geuzaine
%%For: Octave
%%CreationDate: Sat Nov 10 16:26:47 2018
%%LanguageLevel: 3
%%DocumentData: Clean7Bit
%%Pages: 1
%%BoundingBox: 0 0 560 421
%%EndComments
%%BeginProlog
/gl2psdict 64 dict def gl2psdict begin
0 setlinecap 0 setlinejoin
/tryPS3shading false def % set to false to force subdivision
/rThreshold 0.064 def % red component subdivision threshold
/gThreshold 0.034 def % green component subdivision threshold
/bThreshold 0.1 def % blue component subdivision threshold
/BD { bind def } bind def
/C  { setrgbcolor } BD
/G  { 0.082 mul exch 0.6094 mul add exch 0.3086 mul add neg 1.0 add setgray } BD
/W  { setlinewidth } BD
/FC { findfont exch /SH exch def SH scalefont setfont } BD
/SW { dup stringwidth pop } BD
/S  { FC moveto show } BD
/SBC{ FC moveto SW -2 div 0 rmoveto show } BD
/SBR{ FC moveto SW neg 0 rmoveto show } BD
/SCL{ FC moveto 0 SH -2 div rmoveto show } BD
/SCC{ FC moveto SW -2 div SH -2 div rmoveto show } BD
/SCR{ FC moveto SW neg SH -2 div rmoveto show } BD
/STL{ FC moveto 0 SH neg rmoveto show } BD
/STC{ FC moveto SW -2 div SH neg rmoveto show } BD
/STR{ FC moveto SW neg SH neg rmoveto show } BD
/FCT { FC translate 0 0 } BD
/SR  { gsave FCT moveto rotate show grestore } BD
/SBCR{ gsave FCT moveto rotate SW -2 div 0 rmoveto show grestore } BD
/SBRR{ gsave FCT moveto rotate SW neg 0 rmoveto show grestore } BD
/SCLR{ gsave FCT moveto rotate 0 SH -2 div rmoveto show grestore} BD
/SCCR{ gsave FCT moveto rotate SW -2 div SH -2 div rmoveto show grestore} BD
/SCRR{ gsave FCT moveto rotate SW neg SH -2 div rmoveto show grestore} BD
/STLR{ gsave FCT moveto rotate 0 SH neg rmoveto show grestore } BD
/STCR{ gsave FCT moveto rotate SW -2 div SH neg rmoveto show grestore } BD
/STRR{ gsave FCT moveto rotate SW neg SH neg rmoveto show grestore } BD
/P  { newpath 0.0 360.0 arc closepath fill } BD
/LS { newpath moveto } BD
/L  { lineto } BD
/LE { lineto stroke } BD
/T  { newpath moveto lineto lineto closepath fill } BD
/STshfill {
      /b1 exch def /g1 exch def /r1 exch def /y1 exch def /x1 exch def
      /b2 exch def /g2 exch def /r2 exch def /y2 exch def /x2 exch def
      /b3 exch def /g3 exch def /r3 exch def /y3 exch def /x3 exch def
      gsave << /ShadingType 4 /ColorSpace [/DeviceRGB]
      /DataSource [ 0 x1 y1 r1 g1 b1 0 x2 y2 r2 g2 b2 0 x3 y3 r3 g3 b3 ] >>
      shfill grestore } BD
/Tm { 3 -1 roll 8 -1 roll 13 -1 roll add add 3 div
      3 -1 roll 7 -1 roll 11 -1 roll add add 3 div
      3 -1 roll 6 -1 roll 9 -1 roll add add 3 div C T } BD
/STsplit {
      4 index 15 index add 0.5 mul
      4 index 15 index add 0.5 mul
      4 index 15 index add 0.5 mul
      4 index 15 index add 0.5 mul
      4 index 15 index add 0.5 mul
      5 copy 5 copy 25 15 roll
      9 index 30 index add 0.5 mul
      9 index 30 index add 0.5 mul
      9 index 30 index add 0.5 mul
      9 index 30 index add 0.5 mul
      9 index 30 index add 0.5 mul
      5 copy 5 copy 35 5 roll 25 5 roll 15 5 roll
      4 index 10 index add 0.5 mul
      4 index 10 index add 0.5 mul
      4 index 10 index add 0.5 mul
      4 index 10 index add 0.5 mul
      4 index 10 index add 0.5 mul
      5 copy 5 copy 40 5 roll 25 5 roll 15 5 roll 25 5 roll
      STnoshfill STnoshfill STnoshfill STnoshfill } BD
/STnoshfill {
      2 index 8 index sub abs rThreshold gt
      { STsplit }
      { 1 index 7 index sub abs gThreshold gt
        { STsplit }
        { dup 6 index sub abs bThreshold gt
          { STsplit }
          { 2 index 13 index sub abs rThreshold gt
            { STsplit }
            { 1 index 12 index sub abs gThreshold gt
              { STsplit }
              { dup 11 index sub abs bThreshold gt
                { STsplit }
                { 7 index 13 index sub abs rThreshold gt
                  { STsplit }
                  { 6 index 12 index sub abs gThreshold gt
                    { STsplit }
                    { 5 index 11 index sub abs bThreshold gt
                      { STsplit }
                      { Tm }
                      ifelse }
                    ifelse }
                  ifelse }
                ifelse }
              ifelse }
            ifelse }
          ifelse }
        ifelse }
      ifelse } BD
tryPS3shading
{ /shfill where
  { /ST { STshfill } BD }
  { /ST { STnoshfill } BD }
  ifelse }
{ /ST { STnoshfill } BD }
ifelse
end
%%EndProlog
%%BeginSetup
/DeviceRGB setcolorspace
gl2psdict begin
%%EndSetup
%%Page: 1 1
%%BeginPageSetup
%%EndPageSetup
mark
gsave
1.0 1.0 scale
1 1 1 C
521.28 104.906 327.465 388.6 521.28 299.478 T
0 0 0.5 C
259.004 40.9761 281.324 39.9393 268.695 36.52 T
259.004 40.9761 271.634 44.3954 281.324 39.9393 T
249.314 45.4322 271.634 44.3954 259.004 40.9761 T
249.314 45.4322 261.943 48.8515 271.634 44.3954 T
239.623 49.8883 261.943 48.8515 249.314 45.4322 T
239.623 49.8883 252.252 53.3076 261.943 48.8515 T
229.932 54.3444 252.252 53.3076 239.623 49.8883 T
229.932 54.3444 242.561 57.7637 252.252 53.3076 T
220.241 58.8005 242.561 57.7637 229.932 54.3444 T
220.241 58.8005 232.871 62.2198 242.561 57.7637 T
210.551 63.2567 232.871 62.2198 220.241 58.8005 T
210.551 63.2567 223.18 66.6759 232.871 62.2198 T
200.86 67.7128 223.18 66.6759 210.551 63.2567 T
200.86 67.7128 213.489 71.1321 223.18 66.6759 T
191.169 72.1689 213.489 71.1321 200.86 67.7128 T
191.169 72.1689 203.798 75.5882 213.489 71.1321 T
181.478 76.625 203.798 75.5882 191.169 72.1689 T
181.478 76.625 194.108 80.0443 203.798 75.5882 T
171.788 81.0811 194.108 80.0443 181.478 76.625 T
171.788 81.0811 184.417 84.5004 194.108 80.0443 T
162.097 85.5372 184.417 84.5004 171.788 81.0811 T
162.097 85.5372 174.726 88.9565 184.417 84.5004 T
152.406 89.9933 174.726 88.9565 162.097 85.5372 T
152.406 89.9933 165.035 93.4126 174.726 88.9565 T
142.715 94.4494 165.035 93.4126 152.406 89.9933 T
142.715 94.4494 155.345 97.8687 165.035 93.4126 T
133.025 98.9055 155.345 97.8687 142.715 94.4494 T
133.025 98.9055 145.654 102.325 155.345 97.8687 T
123.334 103.362 145.654 102.325 133.025 98.9055 T
123.334 103.362 135.963 106.781 145.654 102.325 T
113.643 107.818 135.963 106.781 123.334 103.362 T
113.643 107.818 126.272 111.237 135.963 106.781 T
103.952 112.274 126.272 111.237 113.643 107.818 T
103.952 112.274 116.582 115.693 126.272 111.237 T
94.2615 116.73 116.582 115.693 103.952 112.274 T
94.2615 116.73 106.891 120.149 116.582 115.693 T
84.5708 121.186 106.891 120.149 94.2615 116.73 T
84.5708 121.186 97.2 124.605 106.891 120.149 T
74.88 125.642 97.2 124.605 84.5708 121.186 T
271.634 44.3954 293.954 43.3586 281.324 39.9393 T
271.634 44.3954 284.263 47.8147 293.954 43.3586 T
261.943 48.8515 284.263 47.8147 271.634 44.3954 T
261.943 48.8515 274.572 52.2708 284.263 47.8147 T
252.252 53.3076 274.572 52.2708 261.943 48.8515 T
252.252 53.3076 264.881 56.7269 274.572 52.2708 T
242.561 57.7637 264.881 56.7269 252.252 53.3076 T
242.561 57.7637 255.191 61.183 264.881 56.7269 T
232.871 62.2198 255.191 61.183 242.561 57.7637 T
232.871 62.2198 245.5 65.6391 255.191 61.183 T
223.18 66.6759 245.5 65.6391 232.871 62.2198 T
223.18 66.6759 235.809 70.0952 245.5 65.6391 T
213.489 71.1321 235.809 70.0952 223.18 66.6759 T
213.489 71.1321 226.118 74.5513 235.809 70.0952 T
203.798 75.5882 226.118 74.5513 213.489 71.1321 T
203.798 75.5882 216.428 79.0075 226.118 74.5513 T
194.108 80.0443 216.428 79.0075 203.798 75.5882 T
194.108 80.0443 206.737 83.4636 216.428 79.0075 T
184.417 84.5004 206.737 83.4636 194.108 80.0443 T
184.417 84.5004 197.046 87.9197 206.737 83.4636 T
174.726 88.9565 197.046 87.9197 184.417 84.5004 T
174.726 88.9565 187.355 92.3758 197.046 87.9197 T
165.035 93.4126 187.355 92.3758 174.726 88.9565 T
165.035 93.4126 177.665 96.8319 187.355 92.3758 T
155.345 97.8687 177.665 96.8319 165.035 93.4126 T
155.345 97.8687 167.974 101.288 177.665 96.8319 T
145.654 102.325 167.974 101.288 155.345 97.8687 T
145.654 102.325 158.283 105.744 167.974 101.288 T
135.963 106.781 158.283 105.744 145.654 102.325 T
135.963 106.781 148.592 110.2 158.283 105.744 T
126.272 111.237 148.592 110.2 135.963 106.781 T
126.272 111.237 138.902 114.656 148.592 110.2 T
116.582 115.693 138.902 114.656 126.272 111.237 T
116.582 115.693 129.211 119.112 138.902 114.656 T
106.891 120.149 129.211 119.112 116.582 115.693 T
106.891 120.149 119.52 123.569 129.211 119.112 T
97.2 124.605 119.52 123.569 106.891 120.149 T
284.263 47.8147 306.583 46.7779 293.954 43.3586 T
284.263 47.8147 296.892 51.234 306.583 46.7779 T
274.572 52.2708 296.892 51.234 284.263 47.8147 T
274.572 52.2708 287.201 55.6901 296.892 51.234 T
264.881 56.7269 287.201 55.6901 274.572 52.2708 T
264.881 56.7269 277.511 60.1462 287.201 55.6901 T
255.191 61.183 277.511 60.1462 264.881 56.7269 T
255.191 61.183 267.82 64.6023 277.511 60.1462 T
245.5 65.6391 267.82 64.6023 255.191 61.183 T
245.5 65.6391 258.129 69.0584 267.82 64.6023 T
235.809 70.0952 258.129 69.0584 245.5 65.6391 T
235.809 70.0952 248.438 73.5145 258.129 69.0584 T
226.118 74.5513 248.438 73.5145 235.809 70.0952 T
226.118 74.5513 238.748 77.9706 248.438 73.5145 T
216.428 79.0075 238.748 77.9706 226.118 74.5513 T
216.428 79.0075 229.057 82.4268 238.748 77.9706 T
206.737 83.4636 229.057 82.4268 216.428 79.0075 T
206.737 83.4636 219.366 86.8829 229.057 82.4268 T
197.046 87.9197 219.366 86.8829 206.737 83.4636 T
197.046 87.9197 209.675 91.339 219.366 86.8829 T
187.355 92.3758 209.675 91.339 197.046 87.9197 T
187.355 92.3758 199.985 95.7951 209.675 91.339 T
177.665 96.8319 199.985 95.7951 187.355 92.3758 T
177.665 96.8319 190.294 100.251 199.985 95.7951 T
167.974 101.288 190.294 100.251 177.665 96.8319 T
167.974 101.288 180.603 104.707 190.294 100.251 T
158.283 105.744 180.603 104.707 167.974 101.288 T
158.283 105.744 170.912 109.163 180.603 104.707 T
148.592 110.2 170.912 109.163 158.283 105.744 T
148.592 110.2 161.221 113.62 170.912 109.163 T
138.902 114.656 161.221 113.62 148.592 110.2 T
138.902 114.656 151.531 118.076 161.221 113.62 T
129.211 119.112 151.531 118.076 138.902 114.656 T
129.211 119.112 141.84 122.532 151.531 118.076 T
119.52 123.569 141.84 122.532 129.211 119.112 T
296.892 51.234 319.212 50.1972 306.583 46.7779 T
296.892 51.234 309.521 54.6533 319.212 50.1972 T
287.201 55.6901 309.521 54.6533 296.892 51.234 T
287.201 55.6901 299.831 59.1094 309.521 54.6533 T
277.511 60.1462 299.831 59.1094 287.201 55.6901 T
277.511 60.1462 290.14 63.5655 299.831 59.1094 T
267.82 64.6023 290.14 63.5655 277.511 60.1462 T
267.82 64.6023 280.449 68.0216 290.14 63.5655 T
258.129 69.0584 280.449 68.0216 267.82 64.6023 T
258.129 69.0584 270.758 72.4777 280.449 68.0216 T
248.438 73.5145 270.758 72.4777 258.129 69.0584 T
248.438 73.5145 261.068 76.9338 270.758 72.4777 T
238.748 77.9706 261.068 76.9338 248.438 73.5145 T
238.748 77.9706 251.377 81.3899 261.068 76.9338 T
229.057 82.4268 251.377 81.3899 238.748 77.9706 T
229.057 82.4268 241.686 85.8461 251.377 81.3899 T
219.366 86.8829 241.686 85.8461 229.057 82.4268 T
219.366 86.8829 231.995 90.3022 241.686 85.8461 T
209.675 91.339 231.995 90.3022 219.366 86.8829 T
209.675 91.339 222.305 94.7583 231.995 90.3022 T
199.985 95.7951 222.305 94.7583 209.675 91.339 T
199.985 95.7951 212.614 99.2144 222.305 94.7583 T
190.294 100.251 212.614 99.2144 199.985 95.7951 T
190.294 100.251 202.923 103.671 212.614 99.2144 T
180.603 104.707 202.923 103.671 190.294 100.251 T
180.603 104.707 193.232 108.127 202.923 103.671 T
170.912 109.163 193.232 108.127 180.603 104.707 T
170.912 109.163 183.542 112.583 193.232 108.127 T
161.221 113.62 183.542 112.583 170.912 109.163 T
161.221 113.62 173.851 117.039 183.542 112.583 T
151.531 118.076 173.851 117.039 161.221 113.62 T
151.531 118.076 164.16 121.495 173.851 117.039 T
141.84 122.532 164.16 121.495 151.531 118.076 T
309.521 54.6533 331.841 53.6165 319.212 50.1972 T
309.521 54.6533 322.151 58.0726 331.841 53.6165 T
299.831 59.1094 322.151 58.0726 309.521 54.6533 T
299.831 59.1094 312.46 62.5287 322.151 58.0726 T
290.14 63.5655 312.46 62.5287 299.831 59.1094 T
290.14 63.5655 302.769 66.9848 312.46 62.5287 T
280.449 68.0216 302.769 66.9848 290.14 63.5655 T
280.449 68.0216 293.078 71.4409 302.769 66.9848 T
270.758 72.4777 293.078 71.4409 280.449 68.0216 T
270.758 72.4777 283.388 75.897 293.078 71.4409 T
261.068 76.9338 283.388 75.897 270.758 72.4777 T
261.068 76.9338 273.697 80.3531 283.388 75.897 T
251.377 81.3899 273.697 80.3531 261.068 76.9338 T
251.377 81.3899 264.006 84.8092 273.697 80.3531 T
241.686 85.8461 264.006 84.8092 251.377 81.3899 T
241.686 85.8461 254.315 89.2654 264.006 84.8092 T
231.995 90.3022 254.315 89.2654 241.686 85.8461 T
231.995 90.3022 244.625 93.7215 254.315 89.2654 T
222.305 94.7583 244.625 93.7215 231.995 90.3022 T
222.305 94.7583 234.934 98.1776 244.625 93.7215 T
212.614 99.2144 234.934 98.1776 222.305 94.7583 T
212.614 99.2144 225.243 102.634 234.934 98.1776 T
202.923 103.671 225.243 102.634 212.614 99.2144 T
202.923 103.671 215.552 107.09 225.243 102.634 T
193.232 108.127 215.552 107.09 202.923 103.671 T
193.232 108.127 205.862 111.546 215.552 107.09 T
183.542 112.583 205.862 111.546 193.232 108.127 T
183.542 112.583 196.171 116.002 205.862 111.546 T
173.851 117.039 196.171 116.002 183.542 112.583 T
173.851 117.039 186.48 120.458 196.171 116.002 T
164.16 121.495 186.48 120.458 173.851 117.039 T
322.151 58.0726 344.471 57.0358 331.841 53.6165 T
322.151 58.0726 334.78 61.4919 344.471 57.0358 T
312.46 62.5287 334.78 61.4919 322.151 58.0726 T
312.46 62.5287 325.089 65.948 334.78 61.4919 T
302.769 66.9848 325.089 65.948 312.46 62.5287 T
302.769 66.9848 315.398 70.4041 325.089 65.948 T
293.078 71.4409 315.398 70.4041 302.769 66.9848 T
293.078 71.4409 305.708 74.8602 315.398 70.4041 T
283.388 75.897 305.708 74.8602 293.078 71.4409 T
283.388 75.897 296.017 79.3163 305.708 74.8602 T
273.697 80.3531 296.017 79.3163 283.388 75.897 T
273.697 80.3531 286.326 83.7724 296.017 79.3163 T
264.006 84.8092 286.326 83.7724 273.697 80.3531 T
264.006 84.8092 276.635 88.2285 286.326 83.7724 T
254.315 89.2654 276.635 88.2285 264.006 84.8092 T
254.315 89.2654 266.945 92.6847 276.635 88.2285 T
244.625 93.7215 266.945 92.6847 254.315 89.2654 T
244.625 93.7215 257.254 97.1408 266.945 92.6847 T
234.934 98.1776 257.254 97.1408 244.625 93.7215 T
234.934 98.1776 247.563 101.597 257.254 97.1408 T
225.243 102.634 247.563 101.597 234.934 98.1776 T
225.243 102.634 237.872 106.053 247.563 101.597 T
215.552 107.09 237.872 106.053 225.243 102.634 T
215.552 107.09 228.182 110.509 237.872 106.053 T
205.862 111.546 228.182 110.509 215.552 107.09 T
205.862 111.546 218.491 114.965 228.182 110.509 T
196.171 116.002 218.491 114.965 205.862 111.546 T
196.171 116.002 208.8 119.421 218.491 114.965 T
186.48 120.458 208.8 119.421 196.171 116.002 T
334.78 61.4919 357.1 60.455 344.471 57.0358 T
334.78 61.4919 347.409 64.9112 357.1 60.455 T
325.089 65.948 347.409 64.9112 334.78 61.4919 T
325.089 65.948 337.718 69.3673 347.409 64.9112 T
315.398 70.4041 337.718 69.3673 325.089 65.948 T
315.398 70.4041 328.028 73.8234 337.718 69.3673 T
305.708 74.8602 328.028 73.8234 315.398 70.4041 T
305.708 74.8602 318.337 78.2795 328.028 73.8234 T
296.017 79.3163 318.337 78.2795 305.708 74.8602 T
296.017 79.3163 308.646 82.7356 318.337 78.2795 T
286.326 83.7724 308.646 82.7356 296.017 79.3163 T
286.326 83.7724 298.955 87.1917 308.646 82.7356 T
276.635 88.2285 298.955 87.1917 286.326 83.7724 T
276.635 88.2285 289.265 91.6478 298.955 87.1917 T
266.945 92.6847 289.265 91.6478 276.635 88.2285 T
266.945 92.6847 279.574 96.104 289.265 91.6478 T
257.254 97.1408 279.574 96.104 266.945 92.6847 T
257.254 97.1408 269.883 100.56 279.574 96.104 T
247.563 101.597 269.883 100.56 257.254 97.1408 T
247.563 101.597 260.192 105.016 269.883 100.56 T
237.872 106.053 260.192 105.016 247.563 101.597 T
237.872 106.053 250.501 109.472 260.192 105.016 T
228.182 110.509 250.501 109.472 237.872 106.053 T
228.182 110.509 240.811 113.928 250.501 109.472 T
218.491 114.965 240.811 113.928 228.182 110.509 T
218.491 114.965 231.12 118.384 240.811 113.928 T
208.8 119.421 231.12 118.384 218.491 114.965 T
347.409 64.9112 369.729 63.8743 357.1 60.455 T
347.409 64.9112 360.038 68.3305 369.729 63.8743 T
337.718 69.3673 360.038 68.3305 347.409 64.9112 T
337.718 69.3673 350.348 72.7866 360.038 68.3305 T
328.028 73.8234 350.348 72.7866 337.718 69.3673 T
328.028 73.8234 340.657 77.2427 350.348 72.7866 T
318.337 78.2795 340.657 77.2427 328.028 73.8234 T
318.337 78.2795 330.966 81.6988 340.657 77.2427 T
308.646 82.7356 330.966 81.6988 318.337 78.2795 T
308.646 82.7356 321.275 86.1549 330.966 81.6988 T
298.955 87.1917 321.275 86.1549 308.646 82.7356 T
298.955 87.1917 311.585 90.611 321.275 86.1549 T
289.265 91.6478 311.585 90.611 298.955 87.1917 T
289.265 91.6478 301.894 95.0671 311.585 90.611 T
279.574 96.104 301.894 95.0671 289.265 91.6478 T
279.574 96.104 292.203 99.5232 301.894 95.0671 T
269.883 100.56 292.203 99.5232 279.574 96.104 T
269.883 100.56 282.512 103.979 292.203 99.5232 T
260.192 105.016 282.512 103.979 269.883 100.56 T
260.192 105.016 272.822 108.435 282.512 103.979 T
250.501 109.472 272.822 108.435 260.192 105.016 T
250.501 109.472 263.131 112.892 272.822 108.435 T
240.811 113.928 263.131 112.892 250.501 109.472 T
240.811 113.928 253.44 117.348 263.131 112.892 T
231.12 118.384 253.44 117.348 240.811 113.928 T
360.038 68.3305 382.358 67.2936 369.729 63.8743 T
360.038 68.3305 372.668 71.7498 382.358 67.2936 T
350.348 72.7866 372.668 71.7498 360.038 68.3305 T
350.348 72.7866 362.977 76.2059 372.668 71.7498 T
340.657 77.2427 362.977 76.2059 350.348 72.7866 T
340.657 77.2427 353.286 80.662 362.977 76.2059 T
330.966 81.6988 353.286 80.662 340.657 77.2427 T
330.966 81.6988 343.595 85.1181 353.286 80.662 T
321.275 86.1549 343.595 85.1181 330.966 81.6988 T
321.275 86.1549 333.905 89.5742 343.595 85.1181 T
311.585 90.611 333.905 89.5742 321.275 86.1549 T
311.585 90.611 324.214 94.0303 333.905 89.5742 T
301.894 95.0671 324.214 94.0303 311.585 90.611 T
301.894 95.0671 314.523 98.4864 324.214 94.0303 T
292.203 99.5232 314.523 98.4864 301.894 95.0671 T
292.203 99.5232 304.832 102.943 314.523 98.4864 T
282.512 103.979 304.832 102.943 292.203 99.5232 T
282.512 103.979 295.142 107.399 304.832 102.943 T
272.822 108.435 295.142 107.399 282.512 103.979 T
272.822 108.435 285.451 111.855 295.142 107.399 T
263.131 112.892 285.451 111.855 272.822 108.435 T
263.131 112.892 275.76 116.311 285.451 111.855 T
253.44 117.348 275.76 116.311 263.131 112.892 T
372.668 71.7498 394.988 70.7129 382.358 67.2936 T
372.668 71.7498 385.297 75.1691 394.988 70.7129 T
362.977 76.2059 385.297 75.1691 372.668 71.7498 T
362.977 76.2059 375.606 79.6252 385.297 75.1691 T
353.286 80.662 375.606 79.6252 362.977 76.2059 T
353.286 80.662 365.915 84.0813 375.606 79.6252 T
343.595 85.1181 365.915 84.0813 353.286 80.662 T
343.595 85.1181 356.225 88.5374 365.915 84.0813 T
333.905 89.5742 356.225 88.5374 343.595 85.1181 T
333.905 89.5742 346.534 92.9935 356.225 88.5374 T
324.214 94.0303 346.534 92.9935 333.905 89.5742 T
324.214 94.0303 336.843 97.4496 346.534 92.9935 T
314.523 98.4864 336.843 97.4496 324.214 94.0303 T
314.523 98.4864 327.152 101.906 336.843 97.4496 T
304.832 102.943 327.152 101.906 314.523 98.4864 T
304.832 102.943 317.461 106.362 327.152 101.906 T
295.142 107.399 317.461 106.362 304.832 102.943 T
295.142 107.399 307.771 110.818 317.461 106.362 T
285.451 111.855 307.771 110.818 295.142 107.399 T
285.451 111.855 298.08 115.274 307.771 110.818 T
275.76 116.311 298.08 115.274 285.451 111.855 T
385.297 75.1691 407.617 74.1322 394.988 70.7129 T
385.297 75.1691 397.926 78.5883 407.617 74.1322 T
375.606 79.6252 397.926 78.5883 385.297 75.1691 T
375.606 79.6252 388.235 83.0444 397.926 78.5883 T
365.915 84.0813 388.235 83.0444 375.606 79.6252 T
365.915 84.0813 378.545 87.5006 388.235 83.0444 T
356.225 88.5374 378.545 87.5006 365.915 84.0813 T
356.225 88.5374 368.854 91.9567 378.545 87.5006 T
346.534 92.9935 368.854 91.9567 356.225 88.5374 T
346.534 92.9935 359.163 96.4128 368.854 91.9567 T
336.843 97.4496 359.163 96.4128 346.534 92.9935 T
336.843 97.4496 349.472 100.869 359.163 96.4128 T
327.152 101.906 349.472 100.869 336.843 97.4496 T
327.152 101.906 339.781 105.325 349.472 100.869 T
317.461 106.362 339.781 105.325 327.152 101.906 T
317.461 106.362 330.091 109.781 339.781 105.325 T
307.771 110.818 330.091 109.781 317.461 106.362 T
307.771 110.818 320.4 114.237 330.091 109.781 T
298.08 115.274 320.4 114.237 307.771 110.818 T
397.926 78.5883 420.246 77.5515 407.617 74.1322 T
397.926 78.5883 410.555 82.0076 420.246 77.5515 T
388.235 83.0444 410.555 82.0076 397.926 78.5883 T
388.235 83.0444 400.865 86.4637 410.555 82.0076 T
378.545 87.5006 400.865 86.4637 388.235 83.0444 T
378.545 87.5006 391.174 90.9199 400.865 86.4637 T
368.854 91.9567 391.174 90.9199 378.545 87.5006 T
368.854 91.9567 381.483 95.376 391.174 90.9199 T
359.163 96.4128 381.483 95.376 368.854 91.9567 T
359.163 96.4128 371.792 99.8321 381.483 95.376 T
349.472 100.869 371.792 99.8321 359.163 96.4128 T
349.472 100.869 362.102 104.288 371.792 99.8321 T
339.781 105.325 362.102 104.288 349.472 100.869 T
339.781 105.325 352.411 108.744 362.102 104.288 T
330.091 109.781 352.411 108.744 339.781 105.325 T
330.091 109.781 342.72 113.2 352.411 108.744 T
320.4 114.237 342.72 113.2 330.091 109.781 T
410.555 82.0076 432.875 80.9708 420.246 77.5515 T
410.555 82.0076 423.185 85.4269 432.875 80.9708 T
400.865 86.4637 423.185 85.4269 410.555 82.0076 T
400.865 86.4637 413.494 89.883 423.185 85.4269 T
391.174 90.9199 413.494 89.883 400.865 86.4637 T
391.174 90.9199 403.803 94.3391 413.494 89.883 T
381.483 95.376 403.803 94.3391 391.174 90.9199 T
381.483 95.376 394.112 98.7953 403.803 94.3391 T
371.792 99.8321 394.112 98.7953 381.483 95.376 T
371.792 99.8321 384.422 103.251 394.112 98.7953 T
362.102 104.288 384.422 103.251 371.792 99.8321 T
362.102 104.288 374.731 107.707 384.422 103.251 T
352.411 108.744 374.731 107.707 362.102 104.288 T
352.411 108.744 365.04 112.164 374.731 107.707 T
342.72 113.2 365.04 112.164 352.411 108.744 T
423.185 85.4269 445.505 84.3901 432.875 80.9708 T
423.185 85.4269 435.814 88.8462 445.505 84.3901 T
413.494 89.883 435.814 88.8462 423.185 85.4269 T
413.494 89.883 426.123 93.3023 435.814 88.8462 T
403.803 94.3391 426.123 93.3023 413.494 89.883 T
403.803 94.3391 416.432 97.7584 426.123 93.3023 T
394.112 98.7953 416.432 97.7584 403.803 94.3391 T
394.112 98.7953 406.741 102.215 416.432 97.7584 T
384.422 103.251 406.741 102.215 394.112 98.7953 T
384.422 103.251 397.051 106.671 406.741 102.215 T
374.731 107.707 397.051 106.671 384.422 103.251 T
374.731 107.707 387.36 111.127 397.051 106.671 T
365.04 112.164 387.36 111.127 374.731 107.707 T
435.814 88.8462 458.134 87.8094 445.505 84.3901 T
435.814 88.8462 448.443 92.2655 458.134 87.8094 T
426.123 93.3023 448.443 92.2655 435.814 88.8462 T
426.123 93.3023 438.752 96.7216 448.443 92.2655 T
416.432 97.7584 438.752 96.7216 426.123 93.3023 T
416.432 97.7584 429.061 101.178 438.752 96.7216 T
406.741 102.215 429.061 101.178 416.432 97.7584 T
406.741 102.215 419.371 105.634 429.061 101.178 T
397.051 106.671 419.371 105.634 406.741 102.215 T
397.051 106.671 409.68 110.09 419.371 105.634 T
387.36 111.127 409.68 110.09 397.051 106.671 T
448.443 92.2655 470.763 91.2287 458.134 87.8094 T
448.443 92.2655 461.072 95.6848 470.763 91.2287 T
438.752 96.7216 461.072 95.6848 448.443 92.2655 T
438.752 96.7216 451.382 100.141 461.072 95.6848 T
429.061 101.178 451.382 100.141 438.752 96.7216 T
429.061 101.178 441.691 104.597 451.382 100.141 T
419.371 105.634 441.691 104.597 429.061 101.178 T
419.371 105.634 432 109.053 441.691 104.597 T
409.68 110.09 432 109.053 419.371 105.634 T
461.072 95.6848 483.392 94.648 470.763 91.2287 T
461.072 95.6848 473.701 99.1041 483.392 94.648 T
451.382 100.141 473.701 99.1041 461.072 95.6848 T
451.382 100.141 464.011 103.56 473.701 99.1041 T
441.691 104.597 464.011 103.56 451.382 100.141 T
441.691 104.597 454.32 108.016 464.011 103.56 T
432 109.053 454.32 108.016 441.691 104.597 T
473.701 99.1041 496.021 98.0673 483.392 94.648 T
473.701 99.1041 486.331 102.523 496.021 98.0673 T
464.011 103.56 486.331 102.523 473.701 99.1041 T
464.011 103.56 476.64 106.98 486.331 102.523 T
454.32 108.016 476.64 106.98 464.011 103.56 T
486.331 102.523 508.651 101.487 496.021 98.0673 T
486.331 102.523 498.96 105.943 508.651 101.487 T
476.64 106.98 498.96 105.943 486.331 102.523 T
498.96 105.943 521.28 104.906 508.651 101.487 T
0.5 W
[16 0] 0 setdash
0 0 0 C
73.2779 126.379 LS
64.7462 130.302 LE
(0) 60.2059 132.39 10 /Helvetica SBR
73.2779 165.293 LS
64.7462 169.216 LE
(0.2) 60.2059 171.304 10 /Helvetica SBR
73.2779 204.208 LS
64.7462 208.131 LE
(0.4) 60.2059 210.219 10 /Helvetica SBR
73.2779 243.122 LS
64.7462 247.045 LE
(0.6) 60.2059 249.133 10 /Helvetica SBR
73.2779 282.036 LS
64.7462 285.96 LE
(0.8) 60.2059 288.047 10 /Helvetica SBR
73.2779 320.951 LS
64.7462 324.874 LE
(1) 60.2059 326.962 10 /Helvetica SBR
1 1 1 C
74.88 125.642 327.465 388.6 74.88 320.214 T
0 0 0 C
74.1291 125.987 LS
73.2779 126.379 LE
0 0 0.5 C
74.88 125.642 87.5092 138.79 97.2 124.605 T
97.2 124.605 109.829 137.753 119.52 123.569 T
87.5092 138.79 109.829 137.753 97.2 124.605 T
87.5092 138.79 100.138 151.938 109.829 137.753 T
119.52 123.569 132.149 136.716 141.84 122.532 T
109.829 137.753 132.149 136.716 119.52 123.569 T
109.829 137.753 122.458 150.901 132.149 136.716 T
0 0 0.690476 C
100.138 151.938 122.458 150.901 109.829 137.753 T
100.138 151.938 112.768 165.086 122.458 150.901 T
0 0 0.5 C
141.84 122.532 154.469 135.68 164.16 121.495 T
132.149 136.716 154.469 135.68 141.84 122.532 T
132.149 136.716 144.778 149.864 154.469 135.68 T
0 0 0.690476 C
122.458 150.901 144.778 149.864 132.149 136.716 T
122.458 150.901 135.088 164.049 144.778 149.864 T
0 0 0.880952 C
112.768 165.086 135.088 164.049 122.458 150.901 T
112.768 165.086 125.397 178.234 135.088 164.049 T
0 0 0.5 C
164.16 121.495 176.789 134.643 186.48 120.458 T
154.469 135.68 176.789 134.643 164.16 121.495 T
154.469 135.68 167.098 148.828 176.789 134.643 T
0 0 0.690476 C
144.778 149.864 167.098 148.828 154.469 135.68 T
144.778 149.864 157.408 163.012 167.098 148.828 T
0 0 0.880952 C
135.088 164.049 157.408 163.012 144.778 149.864 T
135.088 164.049 147.717 177.197 157.408 163.012 T
0 0.0714286 1 C
125.397 178.234 147.717 177.197 135.088 164.049 T
125.397 178.234 138.026 191.382 147.717 177.197 T
0 0 0.5 C
186.48 120.458 199.109 133.606 208.8 119.421 T
176.789 134.643 199.109 133.606 186.48 120.458 T
176.789 134.643 189.418 147.791 199.109 133.606 T
0 0 0.690476 C
167.098 148.828 189.418 147.791 176.789 134.643 T
167.098 148.828 179.728 161.975 189.418 147.791 T
0 0 0.880952 C
157.408 163.012 179.728 161.975 167.098 148.828 T
157.408 163.012 170.037 176.16 179.728 161.975 T
0 0.0714286 1 C
147.717 177.197 170.037 176.16 157.408 163.012 T
147.717 177.197 160.346 190.345 170.037 176.16 T
0 0.325397 1 C
138.026 191.382 160.346 190.345 147.717 177.197 T
138.026 191.382 150.655 204.53 160.346 190.345 T
0 0 0.5 C
208.8 119.421 221.429 132.569 231.12 118.384 T
199.109 133.606 221.429 132.569 208.8 119.421 T
199.109 133.606 211.738 146.754 221.429 132.569 T
0 0 0.690476 C
189.418 147.791 211.738 146.754 199.109 133.606 T
189.418 147.791 202.048 160.939 211.738 146.754 T
0 0 0.880952 C
179.728 161.975 202.048 160.939 189.418 147.791 T
179.728 161.975 192.357 175.123 202.048 160.939 T
0 0.0714286 1 C
170.037 176.16 192.357 175.123 179.728 161.975 T
170.037 176.16 182.666 189.308 192.357 175.123 T
0 0.325397 1 C
160.346 190.345 182.666 189.308 170.037 176.16 T
160.346 190.345 172.975 203.493 182.666 189.308 T
0 0.515873 1 C
150.655 204.53 172.975 203.493 160.346 190.345 T
150.655 204.53 163.285 217.677 172.975 203.493 T
0 0 0.5 C
231.12 118.384 243.749 131.532 253.44 117.348 T
221.429 132.569 243.749 131.532 231.12 118.384 T
221.429 132.569 234.058 145.717 243.749 131.532 T
0 0 0.690476 C
211.738 146.754 234.058 145.717 221.429 132.569 T
211.738 146.754 224.368 159.902 234.058 145.717 T
0 0 0.880952 C
202.048 160.939 224.368 159.902 211.738 146.754 T
202.048 160.939 214.677 174.087 224.368 159.902 T
0 0.0714286 1 C
192.357 175.123 214.677 174.087 202.048 160.939 T
192.357 175.123 204.986 188.271 214.677 174.087 T
0 0.325397 1 C
182.666 189.308 204.986 188.271 192.357 175.123 T
182.666 189.308 195.295 202.456 204.986 188.271 T
0 0.515873 1 C
172.975 203.493 195.295 202.456 182.666 189.308 T
172.975 203.493 185.605 216.641 195.295 202.456 T
0 0.706349 1 C
163.285 217.677 185.605 216.641 172.975 203.493 T
163.285 217.677 175.914 230.825 185.605 216.641 T
0 0 0.5 C
253.44 117.348 266.069 130.496 275.76 116.311 T
243.749 131.532 266.069 130.496 253.44 117.348 T
243.749 131.532 256.378 144.68 266.069 130.496 T
0 0 0.690476 C
234.058 145.717 256.378 144.68 243.749 131.532 T
234.058 145.717 246.688 158.865 256.378 144.68 T
0 0 0.880952 C
224.368 159.902 246.688 158.865 234.058 145.717 T
224.368 159.902 236.997 173.05 246.688 158.865 T
0 0.0714286 1 C
214.677 174.087 236.997 173.05 224.368 159.902 T
214.677 174.087 227.306 187.234 236.997 173.05 T
0 0.325397 1 C
204.986 188.271 227.306 187.234 214.677 174.087 T
204.986 188.271 217.615 201.419 227.306 187.234 T
0 0.515873 1 C
195.295 202.456 217.615 201.419 204.986 188.271 T
195.295 202.456 207.925 215.604 217.615 201.419 T
0 0.706349 1 C
185.605 216.641 207.925 215.604 195.295 202.456 T
185.605 216.641 198.234 229.789 207.925 215.604 T
0 0.896825 1 C
175.914 230.825 198.234 229.789 185.605 216.641 T
175.914 230.825 188.543 243.973 198.234 229.789 T
0 0 0.5 C
275.76 116.311 288.389 129.459 298.08 115.274 T
266.069 130.496 288.389 129.459 275.76 116.311 T
266.069 130.496 278.698 143.643 288.389 129.459 T
0 0 0.690476 C
256.378 144.68 278.698 143.643 266.069 130.496 T
256.378 144.68 269.008 157.828 278.698 143.643 T
0 0 0.880952 C
246.688 158.865 269.008 157.828 256.378 144.68 T
246.688 158.865 259.317 172.013 269.008 157.828 T
0 0.0714286 1 C
236.997 173.05 259.317 172.013 246.688 158.865 T
236.997 173.05 249.626 186.198 259.317 172.013 T
0 0.325397 1 C
227.306 187.234 249.626 186.198 236.997 173.05 T
227.306 187.234 239.935 200.382 249.626 186.198 T
0 0.515873 1 C
217.615 201.419 239.935 200.382 227.306 187.234 T
217.615 201.419 230.245 214.567 239.935 200.382 T
0 0.706349 1 C
207.925 215.604 230.245 214.567 217.615 201.419 T
207.925 215.604 220.554 228.752 230.245 214.567 T
0 0.896825 1 C
198.234 229.789 220.554 228.752 207.925 215.604 T
198.234 229.789 210.863 242.936 220.554 228.752 T
0.0873016 1 0.912698 C
188.543 243.973 210.863 242.936 198.234 229.789 T
188.543 243.973 201.172 257.121 210.863 242.936 T
0 0 0.5 C
298.08 115.274 310.709 128.422 320.4 114.237 T
288.389 129.459 310.709 128.422 298.08 115.274 T
288.389 129.459 301.018 142.607 310.709 128.422 T
0 0 0.690476 C
278.698 143.643 301.018 142.607 288.389 129.459 T
278.698 143.643 291.328 156.791 301.018 142.607 T
0 0 0.880952 C
269.008 157.828 291.328 156.791 278.698 143.643 T
269.008 157.828 281.637 170.976 291.328 156.791 T
0 0.0714286 1 C
259.317 172.013 281.637 170.976 269.008 157.828 T
259.317 172.013 271.946 185.161 281.637 170.976 T
0 0.325397 1 C
249.626 186.198 271.946 185.161 259.317 172.013 T
249.626 186.198 262.255 199.345 271.946 185.161 T
0 0.515873 1 C
239.935 200.382 262.255 199.345 249.626 186.198 T
239.935 200.382 252.565 213.53 262.255 199.345 T
0 0.706349 1 C
230.245 214.567 252.565 213.53 239.935 200.382 T
230.245 214.567 242.874 227.715 252.565 213.53 T
0 0.896825 1 C
220.554 228.752 242.874 227.715 230.245 214.567 T
220.554 228.752 233.183 241.9 242.874 227.715 T
0.0873016 1 0.912698 C
210.863 242.936 233.183 241.9 220.554 228.752 T
210.863 242.936 223.492 256.084 233.183 241.9 T
0.277778 1 0.722222 C
201.172 257.121 223.492 256.084 210.863 242.936 T
201.172 257.121 213.802 270.269 223.492 256.084 T
0 0 0.5 C
320.4 114.237 333.029 127.385 342.72 113.2 T
310.709 128.422 333.029 127.385 320.4 114.237 T
310.709 128.422 323.338 141.57 333.029 127.385 T
0 0 0.690476 C
301.018 142.607 323.338 141.57 310.709 128.422 T
301.018 142.607 313.648 155.755 323.338 141.57 T
0 0 0.880952 C
291.328 156.791 313.648 155.755 301.018 142.607 T
291.328 156.791 303.957 169.939 313.648 155.755 T
0 0.0714286 1 C
281.637 170.976 303.957 169.939 291.328 156.791 T
281.637 170.976 294.266 184.124 303.957 169.939 T
0 0.325397 1 C
271.946 185.161 294.266 184.124 281.637 170.976 T
271.946 185.161 284.575 198.309 294.266 184.124 T
0 0.515873 1 C
262.255 199.345 284.575 198.309 271.946 185.161 T
262.255 199.345 274.885 212.493 284.575 198.309 T
0 0.706349 1 C
252.565 213.53 274.885 212.493 262.255 199.345 T
252.565 213.53 265.194 226.678 274.885 212.493 T
0 0.896825 1 C
242.874 227.715 265.194 226.678 252.565 213.53 T
242.874 227.715 255.503 240.863 265.194 226.678 T
0.0873016 1 0.912698 C
233.183 241.9 255.503 240.863 242.874 227.715 T
233.183 241.9 245.812 255.047 255.503 240.863 T
0.277778 1 0.722222 C
223.492 256.084 245.812 255.047 233.183 241.9 T
223.492 256.084 236.122 269.232 245.812 255.047 T
0.531746 1 0.468254 C
213.802 270.269 236.122 269.232 223.492 256.084 T
213.802 270.269 226.431 283.417 236.122 269.232 T
0 0 0.5 C
342.72 113.2 355.349 126.348 365.04 112.164 T
333.029 127.385 355.349 126.348 342.72 113.2 T
333.029 127.385 345.658 140.533 355.349 126.348 T
0 0 0.690476 C
323.338 141.57 345.658 140.533 333.029 127.385 T
323.338 141.57 335.968 154.718 345.658 140.533 T
0 0 0.880952 C
313.648 155.755 335.968 154.718 323.338 141.57 T
313.648 155.755 326.277 168.902 335.968 154.718 T
0 0.0714286 1 C
303.957 169.939 326.277 168.902 313.648 155.755 T
303.957 169.939 316.586 183.087 326.277 168.902 T
0 0.325397 1 C
294.266 184.124 316.586 183.087 303.957 169.939 T
294.266 184.124 306.895 197.272 316.586 183.087 T
0 0.515873 1 C
284.575 198.309 306.895 197.272 294.266 184.124 T
284.575 198.309 297.205 211.457 306.895 197.272 T
0 0.706349 1 C
274.885 212.493 297.205 211.457 284.575 198.309 T
274.885 212.493 287.514 225.641 297.205 211.457 T
0 0.896825 1 C
265.194 226.678 287.514 225.641 274.885 212.493 T
265.194 226.678 277.823 239.826 287.514 225.641 T
0.0873016 1 0.912698 C
255.503 240.863 277.823 239.826 265.194 226.678 T
255.503 240.863 268.132 254.011 277.823 239.826 T
0.277778 1 0.722222 C
245.812 255.047 268.132 254.011 255.503 240.863 T
245.812 255.047 258.442 268.195 268.132 254.011 T
0.531746 1 0.468254 C
236.122 269.232 258.442 268.195 245.812 255.047 T
236.122 269.232 248.751 282.38 258.442 268.195 T
0.722222 1 0.277778 C
226.431 283.417 248.751 282.38 236.122 269.232 T
226.431 283.417 239.06 296.565 248.751 282.38 T
0 0 0.5 C
365.04 112.164 377.669 125.311 387.36 111.127 T
355.349 126.348 377.669 125.311 365.04 112.164 T
355.349 126.348 367.978 139.496 377.669 125.311 T
0 0 0.690476 C
345.658 140.533 367.978 139.496 355.349 126.348 T
345.658 140.533 358.288 153.681 367.978 139.496 T
0 0 0.880952 C
335.968 154.718 358.288 153.681 345.658 140.533 T
335.968 154.718 348.597 167.866 358.288 153.681 T
0 0.0714286 1 C
326.277 168.902 348.597 167.866 335.968 154.718 T
326.277 168.902 338.906 182.05 348.597 167.866 T
0 0.325397 1 C
316.586 183.087 338.906 182.05 326.277 168.902 T
316.586 183.087 329.215 196.235 338.906 182.05 T
0 0.515873 1 C
306.895 197.272 329.215 196.235 316.586 183.087 T
306.895 197.272 319.525 210.42 329.215 196.235 T
0 0.706349 1 C
297.205 211.457 319.525 210.42 306.895 197.272 T
297.205 211.457 309.834 224.604 319.525 210.42 T
0 0.896825 1 C
287.514 225.641 309.834 224.604 297.205 211.457 T
287.514 225.641 300.143 238.789 309.834 224.604 T
0.0873016 1 0.912698 C
277.823 239.826 300.143 238.789 287.514 225.641 T
277.823 239.826 290.452 252.974 300.143 238.789 T
0.277778 1 0.722222 C
268.132 254.011 290.452 252.974 277.823 239.826 T
268.132 254.011 280.762 267.159 290.452 252.974 T
0.531746 1 0.468254 C
258.442 268.195 280.762 267.159 268.132 254.011 T
258.442 268.195 271.071 281.343 280.762 267.159 T
0.722222 1 0.277778 C
248.751 282.38 271.071 281.343 258.442 268.195 T
248.751 282.38 261.38 295.528 271.071 281.343 T
0.912698 1 0.0873016 C
239.06 296.565 261.38 295.528 248.751 282.38 T
239.06 296.565 251.689 309.713 261.38 295.528 T
0 0 0.5 C
387.36 111.127 399.989 124.275 409.68 110.09 T
377.669 125.311 399.989 124.275 387.36 111.127 T
377.669 125.311 390.298 138.459 399.989 124.275 T
0 0 0.690476 C
367.978 139.496 390.298 138.459 377.669 125.311 T
367.978 139.496 380.608 152.644 390.298 138.459 T
0 0 0.880952 C
358.288 153.681 380.608 152.644 367.978 139.496 T
358.288 153.681 370.917 166.829 380.608 152.644 T
0 0.0714286 1 C
348.597 167.866 370.917 166.829 358.288 153.681 T
348.597 167.866 361.226 181.013 370.917 166.829 T
0 0.325397 1 C
338.906 182.05 361.226 181.013 348.597 167.866 T
338.906 182.05 351.535 195.198 361.226 181.013 T
0 0.515873 1 C
329.215 196.235 351.535 195.198 338.906 182.05 T
329.215 196.235 341.845 209.383 351.535 195.198 T
0 0.706349 1 C
319.525 210.42 341.845 209.383 329.215 196.235 T
319.525 210.42 332.154 223.568 341.845 209.383 T
0 0.896825 1 C
309.834 224.604 332.154 223.568 319.525 210.42 T
309.834 224.604 322.463 237.752 332.154 223.568 T
0.0873016 1 0.912698 C
300.143 238.789 322.463 237.752 309.834 224.604 T
300.143 238.789 312.772 251.937 322.463 237.752 T
0.277778 1 0.722222 C
290.452 252.974 312.772 251.937 300.143 238.789 T
290.452 252.974 303.082 266.122 312.772 251.937 T
0.531746 1 0.468254 C
280.762 267.159 303.082 266.122 290.452 252.974 T
280.762 267.159 293.391 280.306 303.082 266.122 T
0.722222 1 0.277778 C
271.071 281.343 293.391 280.306 280.762 267.159 T
271.071 281.343 283.7 294.491 293.391 280.306 T
0.912698 1 0.0873016 C
261.38 295.528 283.7 294.491 271.071 281.343 T
261.38 295.528 274.009 308.676 283.7 294.491 T
1 0.896825 0 C
251.689 309.713 274.009 308.676 261.38 295.528 T
251.689 309.713 264.319 322.861 274.009 308.676 T
0 0 0.5 C
409.68 110.09 422.309 123.238 432 109.053 T
399.989 124.275 422.309 123.238 409.68 110.09 T
399.989 124.275 412.618 137.423 422.309 123.238 T
0 0 0.690476 C
390.298 138.459 412.618 137.423 399.989 124.275 T
390.298 138.459 402.928 151.607 412.618 137.423 T
0 0 0.880952 C
380.608 152.644 402.928 151.607 390.298 138.459 T
380.608 152.644 393.237 165.792 402.928 151.607 T
0 0.0714286 1 C
370.917 166.829 393.237 165.792 380.608 152.644 T
370.917 166.829 383.546 179.977 393.237 165.792 T
0 0.325397 1 C
361.226 181.013 383.546 179.977 370.917 166.829 T
361.226 181.013 373.855 194.161 383.546 179.977 T
0 0.515873 1 C
351.535 195.198 373.855 194.161 361.226 181.013 T
351.535 195.198 364.165 208.346 373.855 194.161 T
0 0.706349 1 C
341.845 209.383 364.165 208.346 351.535 195.198 T
341.845 209.383 354.474 222.531 364.165 208.346 T
0 0.896825 1 C
332.154 223.568 354.474 222.531 341.845 209.383 T
332.154 223.568 344.783 236.715 354.474 222.531 T
0.0873016 1 0.912698 C
322.463 237.752 344.783 236.715 332.154 223.568 T
322.463 237.752 335.092 250.9 344.783 236.715 T
0.277778 1 0.722222 C
312.772 251.937 335.092 250.9 322.463 237.752 T
312.772 251.937 325.402 265.085 335.092 250.9 T
0.531746 1 0.468254 C
303.082 266.122 325.402 265.085 312.772 251.937 T
303.082 266.122 315.711 279.27 325.402 265.085 T
0.722222 1 0.277778 C
293.391 280.306 315.711 279.27 303.082 266.122 T
293.391 280.306 306.02 293.454 315.711 279.27 T
0.912698 1 0.0873016 C
283.7 294.491 306.02 293.454 293.391 280.306 T
283.7 294.491 296.329 307.639 306.02 293.454 T
1 0.896825 0 C
274.009 308.676 296.329 307.639 283.7 294.491 T
274.009 308.676 286.639 321.824 296.329 307.639 T
1 0.706349 0 C
264.319 322.861 286.639 321.824 274.009 308.676 T
264.319 322.861 276.948 336.008 286.639 321.824 T
0 0 0.5 C
432 109.053 444.629 122.201 454.32 108.016 T
422.309 123.238 444.629 122.201 432 109.053 T
422.309 123.238 434.938 136.386 444.629 122.201 T
0 0 0.690476 C
412.618 137.423 434.938 136.386 422.309 123.238 T
412.618 137.423 425.248 150.57 434.938 136.386 T
0 0 0.880952 C
402.928 151.607 425.248 150.57 412.618 137.423 T
402.928 151.607 415.557 164.755 425.248 150.57 T
0 0.0714286 1 C
393.237 165.792 415.557 164.755 402.928 151.607 T
393.237 165.792 405.866 178.94 415.557 164.755 T
0 0.325397 1 C
383.546 179.977 405.866 178.94 393.237 165.792 T
383.546 179.977 396.175 193.125 405.866 178.94 T
0 0.515873 1 C
373.855 194.161 396.175 193.125 383.546 179.977 T
373.855 194.161 386.485 207.309 396.175 193.125 T
0 0.706349 1 C
364.165 208.346 386.485 207.309 373.855 194.161 T
364.165 208.346 376.794 221.494 386.485 207.309 T
0 0.896825 1 C
354.474 222.531 376.794 221.494 364.165 208.346 T
354.474 222.531 367.103 235.679 376.794 221.494 T
0.0873016 1 0.912698 C
344.783 236.715 367.103 235.679 354.474 222.531 T
344.783 236.715 357.412 249.863 367.103 235.679 T
0.277778 1 0.722222 C
335.092 250.9 357.412 249.863 344.783 236.715 T
335.092 250.9 347.722 264.048 357.412 249.863 T
0.531746 1 0.468254 C
325.402 265.085 347.722 264.048 335.092 250.9 T
325.402 265.085 338.031 278.233 347.722 264.048 T
0.722222 1 0.277778 C
315.711 279.27 338.031 278.233 325.402 265.085 T
315.711 279.27 328.34 292.418 338.031 278.233 T
0.912698 1 0.0873016 C
306.02 293.454 328.34 292.418 315.711 279.27 T
306.02 293.454 318.649 306.602 328.34 292.418 T
1 0.896825 0 C
296.329 307.639 318.649 306.602 306.02 293.454 T
296.329 307.639 308.959 320.787 318.649 306.602 T
1 0.706349 0 C
286.639 321.824 308.959 320.787 296.329 307.639 T
286.639 321.824 299.268 334.972 308.959 320.787 T
1 0.515873 0 C
276.948 336.008 299.268 334.972 286.639 321.824 T
276.948 336.008 289.577 349.156 299.268 334.972 T
0 0 0.5 C
454.32 108.016 466.949 121.164 476.64 106.98 T
444.629 122.201 466.949 121.164 454.32 108.016 T
444.629 122.201 457.258 135.349 466.949 121.164 T
0 0 0.690476 C
434.938 136.386 457.258 135.349 444.629 122.201 T
434.938 136.386 447.568 149.534 457.258 135.349 T
0 0 0.880952 C
425.248 150.57 447.568 149.534 434.938 136.386 T
425.248 150.57 437.877 163.718 447.568 149.534 T
0 0.0714286 1 C
415.557 164.755 437.877 163.718 425.248 150.57 T
415.557 164.755 428.186 177.903 437.877 163.718 T
0 0.325397 1 C
405.866 178.94 428.186 177.903 415.557 164.755 T
405.866 178.94 418.495 192.088 428.186 177.903 T
0 0.515873 1 C
396.175 193.125 418.495 192.088 405.866 178.94 T
396.175 193.125 408.805 206.272 418.495 192.088 T
0 0.706349 1 C
386.485 207.309 408.805 206.272 396.175 193.125 T
386.485 207.309 399.114 220.457 408.805 206.272 T
0 0.896825 1 C
376.794 221.494 399.114 220.457 386.485 207.309 T
376.794 221.494 389.423 234.642 399.114 220.457 T
0.0873016 1 0.912698 C
367.103 235.679 389.423 234.642 376.794 221.494 T
367.103 235.679 379.732 248.827 389.423 234.642 T
0.277778 1 0.722222 C
357.412 249.863 379.732 248.827 367.103 235.679 T
357.412 249.863 370.042 263.011 379.732 248.827 T
0.531746 1 0.468254 C
347.722 264.048 370.042 263.011 357.412 249.863 T
347.722 264.048 360.351 277.196 370.042 263.011 T
0.722222 1 0.277778 C
338.031 278.233 360.351 277.196 347.722 264.048 T
338.031 278.233 350.66 291.381 360.351 277.196 T
0.912698 1 0.0873016 C
328.34 292.418 350.66 291.381 338.031 278.233 T
328.34 292.418 340.969 305.565 350.66 291.381 T
1 0.896825 0 C
318.649 306.602 340.969 305.565 328.34 292.418 T
318.649 306.602 331.279 319.75 340.969 305.565 T
1 0.706349 0 C
308.959 320.787 331.279 319.75 318.649 306.602 T
308.959 320.787 321.588 333.935 331.279 319.75 T
1 0.515873 0 C
299.268 334.972 321.588 333.935 308.959 320.787 T
299.268 334.972 311.897 348.12 321.588 333.935 T
1 0.325397 0 C
289.577 349.156 311.897 348.12 299.268 334.972 T
289.577 349.156 302.206 362.304 311.897 348.12 T
0 0 0.5 C
476.64 106.98 489.269 120.127 498.96 105.943 T
466.949 121.164 489.269 120.127 476.64 106.98 T
466.949 121.164 479.578 134.312 489.269 120.127 T
0 0 0.690476 C
457.258 135.349 479.578 134.312 466.949 121.164 T
457.258 135.349 469.888 148.497 479.578 134.312 T
0 0 0.880952 C
447.568 149.534 469.888 148.497 457.258 135.349 T
447.568 149.534 460.197 162.682 469.888 148.497 T
0 0.0714286 1 C
437.877 163.718 460.197 162.682 447.568 149.534 T
437.877 163.718 450.506 176.866 460.197 162.682 T
0 0.325397 1 C
428.186 177.903 450.506 176.866 437.877 163.718 T
428.186 177.903 440.815 191.051 450.506 176.866 T
0 0.515873 1 C
418.495 192.088 440.815 191.051 428.186 177.903 T
418.495 192.088 431.125 205.236 440.815 191.051 T
0 0.706349 1 C
408.805 206.272 431.125 205.236 418.495 192.088 T
408.805 206.272 421.434 219.42 431.125 205.236 T
0 0.896825 1 C
399.114 220.457 421.434 219.42 408.805 206.272 T
399.114 220.457 411.743 233.605 421.434 219.42 T
0.0873016 1 0.912698 C
389.423 234.642 411.743 233.605 399.114 220.457 T
389.423 234.642 402.052 247.79 411.743 233.605 T
0.277778 1 0.722222 C
379.732 248.827 402.052 247.79 389.423 234.642 T
379.732 248.827 392.362 261.974 402.052 247.79 T
0.531746 1 0.468254 C
370.042 263.011 392.362 261.974 379.732 248.827 T
370.042 263.011 382.671 276.159 392.362 261.974 T
0.722222 1 0.277778 C
360.351 277.196 382.671 276.159 370.042 263.011 T
360.351 277.196 372.98 290.344 382.671 276.159 T
0.912698 1 0.0873016 C
350.66 291.381 372.98 290.344 360.351 277.196 T
350.66 291.381 363.289 304.529 372.98 290.344 T
1 0.896825 0 C
340.969 305.565 363.289 304.529 350.66 291.381 T
340.969 305.565 353.599 318.713 363.289 304.529 T
1 0.706349 0 C
331.279 319.75 353.599 318.713 340.969 305.565 T
331.279 319.75 343.908 332.898 353.599 318.713 T
1 0.515873 0 C
321.588 333.935 343.908 332.898 331.279 319.75 T
321.588 333.935 334.217 347.083 343.908 332.898 T
1 0.325397 0 C
311.897 348.12 334.217 347.083 321.588 333.935 T
311.897 348.12 324.526 361.267 334.217 347.083 T
1 0.0714286 0 C
302.206 362.304 324.526 361.267 311.897 348.12 T
302.206 362.304 314.836 375.452 324.526 361.267 T
0 0 0.5 C
498.96 105.943 511.589 119.091 521.28 104.906 T
489.269 120.127 511.589 119.091 498.96 105.943 T
489.269 120.127 501.898 133.275 511.589 119.091 T
0 0 0.690476 C
479.578 134.312 501.898 133.275 489.269 120.127 T
479.578 134.312 492.208 147.46 501.898 133.275 T
0 0 0.880952 C
469.888 148.497 492.208 147.46 479.578 134.312 T
469.888 148.497 482.517 161.645 492.208 147.46 T
0 0.0714286 1 C
460.197 162.682 482.517 161.645 469.888 148.497 T
460.197 162.682 472.826 175.829 482.517 161.645 T
0 0.325397 1 C
450.506 176.866 472.826 175.829 460.197 162.682 T
450.506 176.866 463.135 190.014 472.826 175.829 T
0 0.515873 1 C
440.815 191.051 463.135 190.014 450.506 176.866 T
440.815 191.051 453.445 204.199 463.135 190.014 T
0 0.706349 1 C
431.125 205.236 453.445 204.199 440.815 191.051 T
431.125 205.236 443.754 218.384 453.445 204.199 T
0 0.896825 1 C
421.434 219.42 443.754 218.384 431.125 205.236 T
421.434 219.42 434.063 232.568 443.754 218.384 T
0.0873016 1 0.912698 C
411.743 233.605 434.063 232.568 421.434 219.42 T
411.743 233.605 424.372 246.753 434.063 232.568 T
0.277778 1 0.722222 C
402.052 247.79 424.372 246.753 411.743 233.605 T
402.052 247.79 414.682 260.938 424.372 246.753 T
0.531746 1 0.468254 C
392.362 261.974 414.682 260.938 402.052 247.79 T
392.362 261.974 404.991 275.122 414.682 260.938 T
0.722222 1 0.277778 C
382.671 276.159 404.991 275.122 392.362 261.974 T
382.671 276.159 395.3 289.307 404.991 275.122 T
0.912698 1 0.0873016 C
372.98 290.344 395.3 289.307 382.671 276.159 T
372.98 290.344 385.609 303.492 395.3 289.307 T
1 0.896825 0 C
363.289 304.529 385.609 303.492 372.98 290.344 T
363.289 304.529 375.919 317.676 385.609 303.492 T
1 0.706349 0 C
353.599 318.713 375.919 317.676 363.289 304.529 T
353.599 318.713 366.228 331.861 375.919 317.676 T
1 0.515873 0 C
343.908 332.898 366.228 331.861 353.599 318.713 T
343.908 332.898 356.537 346.046 366.228 331.861 T
1 0.325397 0 C
334.217 347.083 356.537 346.046 343.908 332.898 T
334.217 347.083 346.846 360.231 356.537 346.046 T
1 0.0714286 0 C
324.526 361.267 346.846 360.231 334.217 347.083 T
324.526 361.267 337.156 374.415 346.846 360.231 T
0.880952 0 0 C
314.836 375.452 337.156 374.415 324.526 361.267 T
314.836 375.452 327.465 388.6 337.156 374.415 T
0 0 0 C
191.169 72.1689 LS
180.409 69.2557 LE
(0.4) 175.589 67.9505 10 /Helvetica STR
152.406 89.9933 LS
141.646 87.0802 LE
(0.6) 136.826 85.775 10 /Helvetica STR
113.643 107.818 LS
102.883 104.905 LE
(0.8) 98.0625 103.599 10 /Helvetica STR
74.88 125.642 LS
64.1202 122.729 LE
(1) 59.2995 121.424 10 /Helvetica STR
229.932 54.3444 LS
219.172 51.4313 LE
(0.2) 214.352 50.1261 10 /Helvetica STR
268.695 36.52 LS
74.88 125.642 LE
[0 3 1 3 1 3 1 3 1 0] 0 setdash
268.695 36.52 LS
74.88 125.642 LE
[16 0] 0 setdash
74.1291 125.987 LS
74.88 125.642 LE
[] 0 setdash
268.695 36.52 LS
259.004 40.9761 L
249.314 45.4322 L
239.623 49.8883 L
229.932 54.3444 L
220.241 58.8005 L
210.551 63.2567 L
200.86 67.7128 L
191.169 72.1689 L
181.478 76.625 L
171.788 81.0811 L
162.097 85.5372 L
152.406 89.9933 L
142.715 94.4494 L
133.025 98.9055 L
123.334 103.362 L
113.643 107.818 L
103.952 112.274 L
94.2615 116.73 L
84.5708 121.186 L
74.88 125.642 LE
[0 3 1 3 1 3 1 3 1 0] 0 setdash
327.465 387.848 LS
327.465 388.6 LE
327.465 387.848 LS
327.465 388.6 LE
276.948 336.008 LS
277.925 336.273 LE
[] 0 setdash
276.948 336.008 LS
289.577 349.156 LE
297.013 338.272 LS
289.577 349.156 LE
303.097 338.958 LS
311.897 348.12 LE
289.577 349.156 LS
302.206 362.304 LE
317.078 340.536 LS
311.897 348.12 L
302.206 362.304 LE
322.561 359.221 LS
322.362 358.027 LE
311.897 348.12 LS
324.526 361.267 LE
322.561 359.221 LS
323.221 363.178 LE
334.217 347.083 LS
324.526 361.267 L
314.836 375.452 LE
324.526 361.267 LS
337.156 374.415 LE
323.221 363.178 LS
327.465 388.6 LE
302.206 362.304 LS
314.836 375.452 L
327.465 388.6 LE
329.247 341.908 LS
334.217 347.083 L
346.846 360.231 LE
337.144 342.799 LS
334.217 347.083 LE
355.396 344.858 LS
356.537 346.046 LE
357.209 345.063 LS
356.537 346.046 L
346.846 360.231 L
337.156 374.415 L
327.465 388.6 LE
[0 3 1 3 1 3 1 3 1 0] 0 setdash
357.209 374.923 LS
327.465 388.6 LE
276.948 374.923 LS
327.465 388.6 LE
276.948 335.256 LS
276.948 374.923 LE
[] 0 setdash
210.551 63.2567 LS
223.18 66.6759 LE
200.86 67.7128 LS
213.489 71.1321 LE
220.241 58.8005 LS
232.871 62.2198 LE
242.561 57.7637 LS
232.871 62.2198 L
223.18 66.6759 L
213.489 71.1321 L
203.798 75.5882 LE
223.18 66.6759 LS
235.809 70.0952 LE
213.489 71.1321 LS
226.118 74.5513 LE
232.871 62.2198 LS
245.5 65.6391 LE
255.191 61.183 LS
245.5 65.6391 L
235.809 70.0952 L
226.118 74.5513 L
216.428 79.0075 LE
235.809 70.0952 LS
248.438 73.5145 LE
226.118 74.5513 LS
238.748 77.9706 LE
245.5 65.6391 LS
258.129 69.0584 LE
267.82 64.6023 LS
258.129 69.0584 L
248.438 73.5145 L
238.748 77.9706 L
229.057 82.4268 LE
248.438 73.5145 LS
261.068 76.9338 LE
238.748 77.9706 LS
251.377 81.3899 LE
258.129 69.0584 LS
270.758 72.4777 LE
273.646 66.1797 LS
274.417 70.7956 LE
[0 3 1 3 1 3 1 3 1 0] 0 setdash
280.449 68.0216 LS
229.932 54.3444 LE
[] 0 setdash
229.932 54.3444 LS
242.561 57.7637 L
255.191 61.183 L
267.82 64.6023 L
280.449 68.0216 LE
239.623 49.8883 LS
252.252 53.3076 LE
249.314 45.4322 LS
261.943 48.8515 LE
269.933 43.9349 LS
270.125 45.0889 LE
259.004 40.9761 LS
271.634 44.3954 LE
269.933 43.9349 LS
268.695 36.52 LE
281.324 39.9393 LS
271.634 44.3954 L
261.943 48.8515 L
252.252 53.3076 L
242.561 57.7637 LE
252.252 53.3076 LS
264.881 56.7269 LE
271.171 51.3498 LS
271.556 53.6578 LE
261.943 48.8515 LS
274.572 52.2708 LE
271.171 51.3498 LS
270.125 45.0889 LE
284.263 47.8147 LS
274.572 52.2708 L
264.881 56.7269 L
255.191 61.183 LE
272.408 58.7648 LS
272.986 62.2267 LE
264.881 56.7269 LS
277.511 60.1462 LE
272.408 58.7648 LS
271.556 53.6578 LE
287.201 55.6901 LS
277.511 60.1462 L
267.82 64.6023 LE
272.986 62.2267 LS
273.646 66.1797 LE
277.511 60.1462 LS
290.14 63.5655 LE
274.572 52.2708 LS
287.201 55.6901 L
299.831 59.1094 LE
296.892 51.234 LS
287.201 55.6901 LE
271.634 44.3954 LS
284.263 47.8147 L
296.892 51.234 L
309.521 54.6533 LE
293.954 43.3586 LS
284.263 47.8147 LE
306.583 46.7779 LS
296.892 51.234 LE
[0 3 1 3 1 3 1 3 1 0] 0 setdash
241.686 85.8461 LS
191.169 72.1689 LE
[] 0 setdash
191.169 72.1689 LS
203.798 75.5882 L
216.428 79.0075 L
229.057 82.4268 L
241.686 85.8461 LE
181.478 76.625 LS
194.108 80.0443 LE
171.788 81.0811 LS
184.417 84.5004 LE
162.097 85.5372 LS
174.726 88.9565 LE
203.798 75.5882 LS
194.108 80.0443 L
184.417 84.5004 L
174.726 88.9565 L
165.035 93.4126 LE
194.108 80.0443 LS
206.737 83.4636 LE
184.417 84.5004 LS
197.046 87.9197 LE
174.726 88.9565 LS
187.355 92.3758 LE
216.428 79.0075 LS
206.737 83.4636 L
197.046 87.9197 L
187.355 92.3758 L
177.665 96.8319 LE
206.737 83.4636 LS
219.366 86.8829 LE
197.046 87.9197 LS
209.675 91.339 LE
187.355 92.3758 LS
199.985 95.7951 LE
229.057 82.4268 LS
219.366 86.8829 L
209.675 91.339 L
199.985 95.7951 L
190.294 100.251 LE
219.366 86.8829 LS
231.995 90.3022 LE
209.675 91.339 LS
222.305 94.7583 LE
199.985 95.7951 LS
212.614 99.2144 LE
[0 3 1 3 1 3 1 3 1 0] 0 setdash
202.923 103.671 LS
152.406 89.9933 LE
[] 0 setdash
152.406 89.9933 LS
165.035 93.4126 L
177.665 96.8319 L
190.294 100.251 L
202.923 103.671 LE
142.715 94.4494 LS
155.345 97.8687 LE
133.025 98.9055 LS
145.654 102.325 LE
123.334 103.362 LS
135.963 106.781 LE
165.035 93.4126 LS
155.345 97.8687 L
145.654 102.325 L
135.963 106.781 L
126.272 111.237 LE
155.345 97.8687 LS
167.974 101.288 LE
145.654 102.325 LS
158.283 105.744 LE
135.963 106.781 LS
148.592 110.2 LE
177.665 96.8319 LS
167.974 101.288 L
158.283 105.744 L
148.592 110.2 L
138.902 114.656 LE
167.974 101.288 LS
180.603 104.707 LE
158.283 105.744 LS
170.912 109.163 LE
148.592 110.2 LS
161.221 113.62 LE
190.294 100.251 LS
180.603 104.707 L
170.912 109.163 L
161.221 113.62 L
151.531 118.076 LE
180.603 104.707 LS
193.232 108.127 LE
170.912 109.163 LS
183.542 112.583 LE
161.221 113.62 LS
173.851 117.039 LE
[0 3 1 3 1 3 1 3 1 0] 0 setdash
164.16 121.495 LS
113.643 107.818 LE
[] 0 setdash
113.643 107.818 LS
126.272 111.237 L
138.902 114.656 L
151.531 118.076 L
164.16 121.495 LE
103.952 112.274 LS
116.582 115.693 LE
94.2615 116.73 LS
106.891 120.149 LE
84.5708 121.186 LS
97.2 124.605 LE
126.272 111.237 LS
116.582 115.693 L
106.891 120.149 L
97.2 124.605 LE
93.1182 130.58 LS
97.2 124.605 LE
138.902 114.656 LS
129.211 119.112 LE
116.582 115.693 LS
129.211 119.112 L
141.84 122.532 LE
106.891 120.149 LS
119.52 123.569 LE
106.391 134.173 LS
97.2 124.605 LE
111.356 135.518 LS
119.52 123.569 LE
129.211 119.112 LS
119.52 123.569 LE
131.815 136.368 LS
119.52 123.569 LE
132.649 135.985 LS
141.84 122.532 LE
151.531 118.076 LS
141.84 122.532 LE
147.987 128.932 LS
141.84 122.532 LE
[0 3 1 3 1 3 1 3 1 0] 0 setdash
75.8585 125.907 LS
74.88 125.642 LE
75.8585 125.907 LS
74.88 125.642 LE
[] 0 setdash
74.88 125.642 LS
87.5092 138.79 LE
93.1182 130.58 LS
87.5092 138.79 LE
106.391 134.173 LS
109.829 137.753 LE
99.4696 151.242 LS
87.5092 138.79 LE
111.356 135.518 LS
109.829 137.753 LE
101.139 150.474 LS
109.829 137.753 LE
115.642 143.805 LS
109.829 137.753 LE
[16 0] 0 setdash
74.88 162.549 LS
74.88 125.642 LE
[0 3 1 3 1 3 1 3 1 0] 0 setdash
74.88 162.549 LS
74.88 125.642 LE
163.409 121.84 LS
319.212 50.1972 LE
[] 0 setdash
319.212 50.1972 LS
309.521 54.6533 L
299.831 59.1094 L
290.14 63.5655 L
280.449 68.0216 L
270.758 72.4777 L
261.068 76.9338 L
251.377 81.3899 L
241.686 85.8461 L
231.995 90.3022 L
222.305 94.7583 L
212.614 99.2144 L
202.923 103.671 L
193.232 108.127 L
183.542 112.583 L
173.851 117.039 L
164.16 121.495 LE
274.884 73.5947 LS
275.847 79.3645 LE
270.758 72.4777 LS
283.388 75.897 LE
274.884 73.5947 LS
274.417 70.7956 LE
261.068 76.9338 LS
273.697 80.3531 LE
251.377 81.3899 LS
264.006 84.8092 LE
293.078 71.4409 LS
283.388 75.897 L
273.697 80.3531 L
264.006 84.8092 L
254.315 89.2654 LE
276.121 81.0096 LS
275.847 79.3645 LE
273.697 80.3531 LS
286.326 83.7724 LE
276.121 81.0096 LS
277.277 87.9334 LE
264.006 84.8092 LS
276.635 88.2285 LE
296.017 79.3163 LS
286.326 83.7724 L
276.635 88.2285 L
266.945 92.6847 LE
286.326 83.7724 LS
298.955 87.1917 LE
277.359 88.4245 LS
277.277 87.9334 LE
276.635 88.2285 LS
289.265 91.6478 LE
277.359 88.4245 LS
278.597 95.8394 LE
283.388 75.897 LS
296.017 79.3163 L
308.646 82.7356 LE
305.708 74.8602 LS
296.017 79.3163 LE
318.337 78.2795 LS
308.646 82.7356 L
298.955 87.1917 L
289.265 91.6478 L
279.574 96.104 LE
298.955 87.1917 LS
311.585 90.611 LE
289.265 91.6478 LS
301.894 95.0671 LE
308.646 82.7356 LS
321.275 86.1549 LE
[0 3 1 3 1 3 1 3 1 0] 0 setdash
292.203 99.5232 LS
241.686 85.8461 LE
[] 0 setdash
241.686 85.8461 LS
254.315 89.2654 L
266.945 92.6847 L
279.574 96.104 L
292.203 99.5232 LE
231.995 90.3022 LS
244.625 93.7215 LE
222.305 94.7583 LS
234.934 98.1776 LE
212.614 99.2144 LS
225.243 102.634 LE
254.315 89.2654 LS
244.625 93.7215 L
234.934 98.1776 L
225.243 102.634 L
215.552 107.09 LE
244.625 93.7215 LS
257.254 97.1408 LE
234.934 98.1776 LS
247.563 101.597 LE
225.243 102.634 LS
237.872 106.053 LE
266.945 92.6847 LS
257.254 97.1408 L
247.563 101.597 L
237.872 106.053 L
228.182 110.509 LE
278.707 96.5023 LS
278.597 95.8394 LE
257.254 97.1408 LS
269.883 100.56 LE
279.574 96.104 LS
269.883 100.56 L
260.192 105.016 LE
279.835 103.254 LS
278.707 96.5023 LE
269.883 100.56 LS
282.512 103.979 LE
279.835 103.254 LS
280.138 105.071 LE
247.563 101.597 LS
260.192 105.016 L
272.822 108.435 LE
237.872 106.053 LS
250.501 109.472 LE
260.192 105.016 LS
250.501 109.472 L
240.811 113.928 LE
250.501 109.472 LS
263.131 112.892 LE
[0 3 1 3 1 3 1 3 1 0] 0 setdash
253.44 117.348 LS
202.923 103.671 LE
[] 0 setdash
202.923 103.671 LS
215.552 107.09 L
228.182 110.509 L
240.811 113.928 L
253.44 117.348 LE
99.4696 151.242 LS
100.138 151.938 LE
101.139 150.474 LS
100.138 151.938 LE
115.642 143.805 LS
122.458 150.901 LE
100.138 151.938 LS
112.768 165.086 LE
131.815 136.368 LS
132.149 136.716 LE
132.649 135.985 LS
132.149 136.716 L
122.458 150.901 L
112.768 165.086 LE
122.458 150.901 LS
135.088 164.049 LE
124.059 176.841 LS
112.768 165.086 LE
132.149 136.716 LS
144.778 149.864 LE
[0 3 1 3 1 3 1 3 1 0] 0 setdash
122.649 177.49 LS
74.88 164.557 LE
[16 0] 0 setdash
73.2779 165.293 LS
74.88 164.557 LE
74.88 199.455 LS
74.88 162.549 LE
[0 3 1 3 1 3 1 3 1 0] 0 setdash
74.88 199.455 LS
74.88 162.549 LE
[] 0 setdash
147.987 128.932 LS
154.469 135.68 LE
164.16 121.495 LS
154.469 135.68 L
144.778 149.864 L
135.088 164.049 LE
127.397 175.306 LS
135.088 164.049 LE
193.232 108.127 LS
205.862 111.546 LE
183.542 112.583 LS
196.171 116.002 LE
173.851 117.039 LS
186.48 120.458 LE
[0 3 1 3 1 3 1 3 1 0] 0 setdash
164.16 121.495 LS
165.138 121.76 LE
[] 0 setdash
170.307 127.895 LS
164.16 121.495 LE
215.552 107.09 LS
205.862 111.546 L
196.171 116.002 L
186.48 120.458 LE
140.232 169.404 LS
135.088 164.049 LE
156.404 161.968 LS
144.778 149.864 LE
154.469 135.68 LS
167.098 148.828 LE
170.307 127.895 LS
176.789 134.643 LE
186.48 120.458 LS
176.789 134.643 L
167.098 148.828 LE
158.908 160.817 LS
167.098 148.828 LE
228.182 110.509 LS
218.491 114.965 LE
205.862 111.546 LS
218.491 114.965 L
231.12 118.384 LE
196.171 116.002 LS
208.8 119.421 LE
172.577 154.531 LS
167.098 148.828 LE
188.75 147.094 LS
176.789 134.643 LE
186.48 120.458 LS
199.109 133.606 LE
208.8 119.421 LS
199.109 133.606 LE
190.419 146.327 LS
199.109 133.606 LE
218.491 114.965 LS
208.8 119.421 LE
204.922 139.658 LS
199.109 133.606 LE
221.095 132.221 LS
208.8 119.421 LE
221.929 131.837 LS
231.12 118.384 LE
240.811 113.928 LS
231.12 118.384 LE
237.267 124.784 LS
231.12 118.384 LE
[0 3 1 3 1 3 1 3 1 0] 0 setdash
330.966 81.6988 LS
280.449 68.0216 LE
[] 0 setdash
280.449 68.0216 LS
293.078 71.4409 L
305.708 74.8602 L
318.337 78.2795 L
330.966 81.6988 LE
290.14 63.5655 LS
302.769 66.9848 LE
299.831 59.1094 LS
312.46 62.5287 LE
309.521 54.6533 LS
322.151 58.0726 LE
331.841 53.6165 LS
322.151 58.0726 L
312.46 62.5287 L
302.769 66.9848 L
293.078 71.4409 LE
302.769 66.9848 LS
315.398 70.4041 LE
312.46 62.5287 LS
325.089 65.948 LE
322.151 58.0726 LS
334.78 61.4919 LE
344.471 57.0358 LS
334.78 61.4919 L
325.089 65.948 L
315.398 70.4041 L
305.708 74.8602 LE
315.398 70.4041 LS
328.028 73.8234 LE
325.089 65.948 LS
337.718 69.3673 LE
334.78 61.4919 LS
347.409 64.9112 LE
357.1 60.455 LS
347.409 64.9112 L
337.718 69.3673 L
328.028 73.8234 L
318.337 78.2795 LE
328.028 73.8234 LS
340.657 77.2427 LE
337.718 69.3673 LS
350.348 72.7866 LE
347.409 64.9112 LS
360.038 68.3305 LE
[0 3 1 3 1 3 1 3 1 0] 0 setdash
252.69 117.693 LS
369.729 63.8743 LE
[] 0 setdash
369.729 63.8743 LS
360.038 68.3305 L
350.348 72.7866 L
340.657 77.2427 L
330.966 81.6988 L
321.275 86.1549 L
311.585 90.611 L
301.894 95.0671 L
292.203 99.5232 L
282.512 103.979 L
272.822 108.435 L
263.131 112.892 L
253.44 117.348 LE
320.628 104.906 LS
317.461 106.362 LE
338.233 104.906 LS
339.781 105.325 LE
340.693 104.906 LS
339.781 105.325 L
330.091 109.781 LE
339.781 105.325 LS
352.411 108.744 LE
[0 3 1 3 1 3 1 3 1 0] 0 setdash
342.72 113.2 LS
360.758 104.906 LE
[] 0 setdash
360.758 104.906 LS
352.411 108.744 L
342.72 113.2 LE
364.383 104.906 LS
374.731 107.707 LE
352.411 108.744 LS
365.04 112.164 LE
380.823 104.906 LS
374.731 107.707 L
365.04 112.164 LE
360.958 118.138 LS
365.04 112.164 LE
374.731 107.707 LS
387.36 111.127 LE
374.231 121.732 LS
365.04 112.164 LE
379.196 123.076 LS
387.36 111.127 LE
397.051 106.671 LS
387.36 111.127 L
399.989 124.275 LE
390.532 104.906 LS
397.051 106.671 L
409.68 110.09 LE
400.889 104.906 LS
397.051 106.671 LE
409.68 110.09 LS
399.989 124.275 LE
397.435 128.014 LS
399.989 124.275 LE
419.371 105.634 LS
409.68 110.09 LE
405.741 130.263 LS
399.989 124.275 LE
409.68 110.09 LS
422.309 123.238 LE
[0 3 1 3 1 3 1 3 1 0] 0 setdash
432 109.053 LS
431.25 109.398 LE
[] 0 setdash
432 109.053 LS
422.309 123.238 LE
415.673 132.952 LS
422.309 123.238 L
434.938 136.386 LE
432 109.053 LS
444.629 122.201 LE
450.238 113.991 LS
444.629 122.201 L
434.938 136.386 LE
433.911 137.89 LS
434.938 136.386 LE
437.252 138.794 LS
434.938 136.386 LE
444.629 122.201 LS
457.258 135.349 LE
463.511 117.584 LS
466.949 121.164 LE
468.476 118.929 LS
466.949 121.164 L
457.258 135.349 LE
452.149 142.828 LS
457.258 135.349 LE
468.763 147.326 LS
457.258 135.349 LE
466.949 121.164 LS
479.578 134.312 LE
486.715 123.867 LS
479.578 134.312 LE
470.387 147.766 LS
479.578 134.312 L
492.208 147.46 LE
495.021 126.116 LS
501.898 133.275 LE
504.953 128.805 LS
501.898 133.275 L
492.208 147.46 LE
488.625 152.704 LS
492.208 147.46 LE
[0 3 1 3 1 3 1 3 1 0] 0 setdash
497.019 154.976 LS
521.28 143.82 LE
312.084 104.906 LS
343.698 113.465 LE
[] 0 setdash
312.084 104.906 LS
317.461 106.362 L
330.091 109.781 L
342.72 113.2 LE
[0 3 1 3 1 3 1 3 1 0] 0 setdash
226.431 283.417 LS
227.408 283.682 LE
[] 0 setdash
226.431 283.417 LS
239.06 296.565 LE
246.496 285.681 LS
239.06 296.565 LE
252.581 286.367 LS
261.38 295.528 LE
239.06 296.565 LS
251.689 309.713 LE
266.561 287.944 LS
261.38 295.528 L
251.689 309.713 LE
261.38 295.528 LS
274.009 308.676 LE
251.689 309.713 LS
264.319 322.861 LE
278.73 289.317 LS
283.7 294.491 LE
286.626 290.208 LS
283.7 294.491 L
274.009 308.676 L
264.319 322.861 LE
274.009 308.676 LS
286.639 321.824 LE
264.319 322.861 LS
276.948 336.008 LE
283.7 294.491 LS
296.329 307.639 LE
304.879 292.267 LS
306.02 293.454 LE
[0 3 1 3 1 3 1 3 1 0] 0 setdash
226.431 322.331 LS
276.948 336.008 LE
[] 0 setdash
306.692 292.471 LS
306.02 293.454 L
296.329 307.639 L
286.639 321.824 L
276.948 336.008 LE
286.639 321.824 LS
299.268 334.972 LE
296.329 307.639 LS
308.959 320.787 LE
306.02 293.454 LS
318.649 306.602 LE
326.757 294.735 LS
318.649 306.602 L
308.959 320.787 L
299.268 334.972 LE
297.013 338.272 LS
299.268 334.972 LE
317.657 329.842 LS
318.978 337.755 LE
308.959 320.787 LS
321.588 333.935 LE
317.657 329.842 LS
317.258 327.455 LE
331.279 319.75 LS
321.588 333.935 LE
317.078 340.536 LS
321.588 333.935 LE
318.978 337.755 LS
322.362 358.027 LE
329.247 341.908 LS
321.588 333.935 LE
303.097 338.958 LS
299.268 334.972 LE
318.649 306.602 LS
331.279 319.75 L
343.908 332.898 LE
340.969 305.565 LS
331.279 319.75 LE
331.029 295.217 LS
340.969 305.565 L
353.599 318.713 LE
346.822 296.998 LS
340.969 305.565 LE
357.178 298.167 LS
363.289 304.529 LE
366.887 299.262 LS
363.289 304.529 L
353.599 318.713 L
343.908 332.898 LE
337.144 342.799 LS
343.908 332.898 LE
355.396 344.858 LS
343.908 332.898 LE
[0 3 1 3 1 3 1 3 1 0] 0 setdash
366.228 331.861 LS
365.478 332.206 LE
[] 0 setdash
357.209 345.063 LS
366.228 331.861 LE
[0 3 1 3 1 3 1 3 1 0] 0 setdash
366.228 331.109 LS
366.228 370.776 LE
[] 0 setdash
353.599 318.713 LS
366.228 331.861 LE
363.289 304.529 LS
375.919 317.676 LE
385.609 303.492 LS
375.919 317.676 L
366.228 331.861 LE
[0 3 1 3 1 3 1 3 1 0] 0 setdash
366.228 331.861 LS
386.953 322.331 LE
[] 0 setdash
383.328 301.117 LS
385.609 303.492 LE
386.953 301.526 LS
385.609 303.492 LE
[0 3 1 3 1 3 1 3 1 0] 0 setdash
386.953 361.246 LS
357.209 374.923 LE
226.431 361.246 LS
276.948 374.923 LE
226.431 282.664 LS
226.431 361.246 LE
[] 0 setdash
285.934 104.906 LS
295.142 107.399 LE
272.822 108.435 LS
285.451 111.855 LE
263.131 112.892 LS
275.76 116.311 LE
300.563 104.906 LS
295.142 107.399 L
285.451 111.855 L
275.76 116.311 LE
271.678 122.286 LS
275.76 116.311 LE
317.461 106.362 LS
307.771 110.818 LE
295.142 107.399 LS
307.771 110.818 L
320.4 114.237 LE
285.451 111.855 LS
298.08 115.274 LE
284.951 125.879 LS
275.76 116.311 LE
289.916 127.223 LS
298.08 115.274 LE
307.771 110.818 LS
298.08 115.274 L
310.709 128.422 LE
320.4 114.237 LS
310.709 128.422 LE
308.155 132.161 LS
310.709 128.422 LE
330.091 109.781 LS
320.4 114.237 LE
316.461 134.41 LS
310.709 128.422 LE
320.4 114.237 LS
333.029 127.385 LE
[0 3 1 3 1 3 1 3 1 0] 0 setdash
342.72 113.2 LS
341.97 113.545 LE
[] 0 setdash
342.72 113.2 LS
333.029 127.385 LE
326.393 137.099 LS
333.029 127.385 L
345.658 140.533 LE
342.72 113.2 LS
355.349 126.348 LE
360.958 118.138 LS
355.349 126.348 L
345.658 140.533 LE
344.631 142.037 LS
345.658 140.533 LE
347.972 142.941 LS
345.658 140.533 LE
355.349 126.348 LS
367.978 139.496 LE
374.231 121.732 LS
377.669 125.311 LE
379.196 123.076 LS
377.669 125.311 L
367.978 139.496 LE
362.869 146.975 LS
367.978 139.496 LE
379.482 151.472 LS
367.978 139.496 LE
377.669 125.311 LS
390.298 138.459 LE
397.435 128.014 LS
390.298 138.459 LE
381.108 151.912 LS
390.298 138.459 L
402.928 151.607 LE
405.741 130.263 LS
412.618 137.423 LE
415.673 132.952 LS
412.618 137.423 L
402.928 151.607 LE
399.346 156.85 LS
402.928 151.607 LE
410.993 160.004 LS
402.928 151.607 LE
412.618 137.423 LS
425.248 150.57 LE
433.911 137.89 LS
425.248 150.57 LE
417.584 161.788 LS
425.248 150.57 L
437.877 163.718 LE
437.252 138.794 LS
447.568 149.534 LE
452.149 142.828 LS
447.568 149.534 L
437.877 163.718 LE
435.822 166.726 LS
437.877 163.718 LE
442.503 168.535 LS
437.877 163.718 LE
447.568 149.534 LS
460.197 162.682 LE
468.763 147.326 LS
469.888 148.497 LE
470.387 147.766 LS
469.888 148.497 L
460.197 162.682 LE
454.06 171.664 LS
460.197 162.682 LE
472.299 176.602 LS
472.826 175.829 LE
460.197 162.682 LS
472.826 175.829 LE
[0 3 1 3 1 3 1 3 1 0] 0 setdash
482.517 161.645 LS
481.767 161.989 LE
[] 0 setdash
482.517 161.645 LS
472.826 175.829 LE
[0 3 1 3 1 3 1 3 1 0] 0 setdash
482.517 179.368 LS
482.517 160.892 LE
[] 0 setdash
469.888 148.497 LS
482.517 161.645 LE
488.625 152.704 LS
482.517 161.645 LE
[0 3 1 3 1 3 1 3 1 0] 0 setdash
482.517 161.645 LS
497.019 154.976 LE
511.523 187.221 LS
521.28 182.735 LE
253.44 117.348 LS
254.418 117.612 LE
[] 0 setdash
142.907 172.19 LS
140.232 169.404 LE
[0 3 1 3 1 3 1 3 1 0] 0 setdash
125.397 178.234 LS
126.375 178.499 LE
[] 0 setdash
126.735 179.626 LS
125.397 178.234 LE
[0 3 1 3 1 3 1 3 1 0] 0 setdash
125.397 180.242 LS
125.397 177.48 LE
[] 0 setdash
124.059 176.841 LS
125.397 178.234 LE
127.397 175.306 LS
125.397 178.234 LE
[0 3 1 3 1 3 1 3 1 0] 0 setdash
125.397 178.234 LS
122.649 177.49 LE
[] 0 setdash
156.404 161.968 LS
157.408 163.012 LE
[16 0] 0 setdash
74.88 203.471 LS
74.88 199.455 LE
[0 3 1 3 1 3 1 3 1 0] 0 setdash
74.88 203.471 LS
74.88 199.455 LE
[] 0 setdash
158.908 160.817 LS
157.408 163.012 LE
154.908 166.671 LS
157.408 163.012 LE
159.08 164.753 LS
157.408 163.012 LE
175.252 157.316 LS
172.577 154.531 LE
188.75 147.094 LS
189.418 147.791 LE
190.419 146.327 LS
189.418 147.791 LE
186.419 152.181 LS
189.418 147.791 LE
191.425 149.88 LS
189.418 147.791 LE
207.597 142.443 LS
204.922 139.658 LE
221.095 132.221 LS
221.429 132.569 LE
221.669 132.218 LS
221.429 132.569 LE
217.93 137.692 LS
221.429 132.569 LE
223.77 135.006 LS
221.429 132.569 LE
[16 0] 0 setdash
73.2779 204.208 LS
74.88 203.471 LE
[] 0 setdash
126.735 179.626 LS
138.026 191.382 LE
[0 3 1 3 1 3 1 3 1 0] 0 setdash
125.397 209.868 LS
125.397 180.242 LE
[] 0 setdash
142.907 172.19 LS
147.717 177.197 LE
[0 3 1 3 1 3 1 3 1 0] 0 setdash
121.199 216.012 LS
74.88 203.471 LE
[16 0] 0 setdash
74.88 203.471 LS
74.88 242.385 LE
[0 3 1 3 1 3 1 3 1 0] 0 setdash
74.88 203.471 LS
74.88 242.385 LE
[] 0 setdash
154.908 166.671 LS
147.717 177.197 L
138.026 191.382 LE
147.717 177.197 LS
160.346 190.345 LE
138.026 191.382 LS
150.655 204.53 LE
[0 3 1 3 1 3 1 3 1 0] 0 setdash
125.397 217.148 LS
139.438 220.95 LE
125.397 241.502 LS
125.397 209.868 LE
125.397 217.148 LS
121.199 216.012 LE
[] 0 setdash
159.08 164.753 LS
170.037 176.16 LE
175.252 157.316 LS
179.728 161.975 LE
186.419 152.181 LS
179.728 161.975 L
170.037 176.16 L
160.346 190.345 L
150.655 204.53 LE
160.346 190.345 LS
172.975 203.493 LE
150.655 204.53 LS
163.285 217.677 LE
170.037 176.16 LS
182.666 189.308 LE
179.728 161.975 LS
192.357 175.123 LE
191.425 149.88 LS
202.048 160.939 LE
207.597 142.443 LS
211.738 146.754 LE
[0 3 1 3 1 3 1 3 1 0] 0 setdash
157.676 225.887 LS
139.438 220.95 LE
125.397 241.502 LS
125.397 256.063 LE
[] 0 setdash
217.93 137.692 LS
211.738 146.754 L
202.048 160.939 L
192.357 175.123 L
182.666 189.308 L
172.975 203.493 L
163.285 217.677 LE
[0 3 1 3 1 3 1 3 1 0] 0 setdash
175.914 230.825 LS
175.914 230.072 LE
[] 0 setdash
172.975 203.493 LS
185.605 216.641 LE
163.285 217.677 LS
175.914 230.825 LE
182.666 189.308 LS
195.295 202.456 LE
192.357 175.123 LS
204.986 188.271 LE
202.048 160.939 LS
214.677 174.087 LE
211.738 146.754 LS
224.368 159.902 LE
223.77 135.006 LS
234.058 145.717 LE
[0 3 1 3 1 3 1 3 1 0] 0 setdash
175.914 230.825 LS
157.676 225.887 LE
[] 0 setdash
241.734 134.482 LS
234.058 145.717 L
224.368 159.902 L
214.677 174.087 L
204.986 188.271 L
195.295 202.456 L
185.605 216.641 L
175.914 230.825 LE
[0 3 1 3 1 3 1 3 1 0] 0 setdash
175.914 230.825 LS
176.892 231.09 LE
[] 0 setdash
175.914 230.825 LS
188.543 243.973 LE
[0 3 1 3 1 3 1 3 1 0] 0 setdash
175.914 262.459 LS
175.914 230.825 LE
[] 0 setdash
185.605 216.641 LS
198.234 229.789 LE
195.295 202.456 LS
207.925 215.604 LE
204.986 188.271 LS
217.615 201.419 LE
214.677 174.087 LS
227.306 187.234 LE
224.368 159.902 LS
236.997 173.05 LE
234.058 145.717 LS
246.688 158.865 LE
247.171 135.095 LS
256.378 144.68 LE
261.799 136.745 LS
256.378 144.68 L
246.688 158.865 L
236.997 173.05 L
227.306 187.234 L
217.615 201.419 L
207.925 215.604 L
198.234 229.789 L
188.543 243.973 LE
198.234 229.789 LS
210.863 242.936 LE
188.543 243.973 LS
201.172 257.121 LE
[0 3 1 3 1 3 1 3 1 0] 0 setdash
175.914 262.459 LS
175.914 269.74 LE
[] 0 setdash
207.925 215.604 LS
220.554 228.752 LE
217.615 201.419 LS
230.245 214.567 LE
227.306 187.234 LS
239.935 200.382 LE
236.997 173.05 LS
249.626 186.198 LE
246.688 158.865 LS
259.317 172.013 LE
256.378 144.68 LS
269.008 157.828 LE
273.321 138.045 LS
278.698 143.643 LE
281.865 139.009 LS
278.698 143.643 L
269.008 157.828 L
259.317 172.013 L
249.626 186.198 L
239.935 200.382 L
230.245 214.567 L
220.554 228.752 L
210.863 242.936 L
201.172 257.121 LE
210.863 242.936 LS
223.492 256.084 LE
201.172 257.121 LS
213.802 270.269 LE
220.554 228.752 LS
233.183 241.9 LE
230.245 214.567 LS
242.874 227.715 LE
239.935 200.382 LS
252.565 213.53 LE
249.626 186.198 LS
262.255 199.345 LE
259.317 172.013 LS
271.946 185.161 LE
269.008 157.828 LS
281.637 170.976 LE
278.698 143.643 LS
291.328 156.791 LE
299.47 140.995 LS
301.018 142.607 LE
301.93 141.272 LS
301.018 142.607 L
291.328 156.791 L
281.637 170.976 L
271.946 185.161 L
262.255 199.345 L
252.565 213.53 L
242.874 227.715 L
233.183 241.9 L
223.492 256.084 L
213.802 270.269 LE
223.492 256.084 LS
236.122 269.232 LE
213.802 270.269 LS
226.431 283.417 LE
233.183 241.9 LS
245.812 255.047 LE
242.874 227.715 LS
255.503 240.863 LE
252.565 213.53 LS
265.194 226.678 LE
262.255 199.345 LS
274.885 212.493 LE
271.946 185.161 LS
284.575 198.309 LE
281.637 170.976 LS
294.266 184.124 LE
291.328 156.791 LS
303.957 169.939 LE
301.018 142.607 LS
313.648 155.755 LE
321.995 143.536 LS
313.648 155.755 L
303.957 169.939 L
294.266 184.124 L
284.575 198.309 L
274.885 212.493 L
265.194 226.678 L
255.503 240.863 L
245.812 255.047 L
236.122 269.232 L
226.431 283.417 LE
236.122 269.232 LS
248.751 282.38 LE
245.812 255.047 LS
258.442 268.195 LE
255.503 240.863 LS
268.132 254.011 LE
265.194 226.678 LS
277.823 239.826 LE
274.885 212.493 LS
287.514 225.641 LE
284.575 198.309 LS
297.205 211.457 LE
294.266 184.124 LS
306.895 197.272 LE
303.957 169.939 LS
316.586 183.087 LE
313.648 155.755 LS
326.277 168.902 LE
325.62 143.945 LS
335.968 154.718 LE
342.06 145.8 LS
335.968 154.718 L
326.277 168.902 L
316.586 183.087 L
306.895 197.272 L
297.205 211.457 L
287.514 225.641 L
277.823 239.826 L
268.132 254.011 L
258.442 268.195 L
248.751 282.38 LE
246.496 285.681 LS
248.751 282.38 LE
252.581 286.367 LS
248.751 282.38 LE
258.442 268.195 LS
271.071 281.343 LE
268.132 254.011 LS
280.762 267.159 LE
277.823 239.826 LS
290.452 252.974 LE
287.514 225.641 LS
300.143 238.789 LE
302.004 236.066 LS
300.862 229.227 LE
297.205 211.457 LS
309.834 224.604 LE
306.895 197.272 LS
319.525 210.42 LE
316.586 183.087 LS
329.215 196.235 LE
326.277 168.902 LS
338.906 182.05 LE
335.968 154.718 LS
348.597 167.866 LE
351.769 146.895 LS
358.288 153.681 LE
362.126 148.063 LS
358.288 153.681 L
348.597 167.866 L
338.906 182.05 L
329.215 196.235 L
319.525 210.42 L
309.834 224.604 L
300.143 238.789 L
290.452 252.974 L
280.762 267.159 L
271.071 281.343 LE
266.561 287.944 LS
271.071 281.343 LE
278.73 289.317 LS
271.071 281.343 LE
280.762 267.159 LS
293.391 280.306 LE
290.452 252.974 LS
303.082 266.122 LE
302.945 241.706 LS
306.247 261.486 LE
300.143 238.789 LS
312.772 251.937 LE
302.945 241.706 LS
302.004 236.066 LE
309.834 224.604 LS
322.463 237.752 LE
319.525 210.42 LS
332.154 223.568 LE
329.215 196.235 LS
341.845 209.383 LE
338.906 182.05 LS
351.535 195.198 LE
348.597 167.866 LS
361.226 181.013 LE
358.288 153.681 LS
370.917 166.829 LE
379.482 151.472 LS
380.608 152.644 LE
381.108 151.912 LS
380.608 152.644 L
370.917 166.829 L
361.226 181.013 L
351.535 195.198 L
341.845 209.383 L
332.154 223.568 L
322.463 237.752 L
312.772 251.937 L
303.082 266.122 L
293.391 280.306 LE
286.626 290.208 LS
293.391 280.306 LE
304.879 292.267 LS
293.391 280.306 LE
307.849 271.085 LS
310.491 286.911 LE
303.082 266.122 LS
315.711 279.27 LE
307.849 271.085 LS
306.247 261.486 LE
312.772 251.937 LS
325.402 265.085 LE
322.463 237.752 LS
335.092 250.9 LE
332.154 223.568 LS
344.783 236.715 LE
341.845 209.383 LS
354.474 222.531 LE
351.535 195.198 LS
364.165 208.346 LE
361.226 181.013 LS
373.855 194.161 LE
370.917 166.829 LS
383.546 179.977 LE
380.608 152.644 LS
393.237 165.792 LE
399.346 156.85 LS
393.237 165.792 L
383.546 179.977 L
373.855 194.161 L
364.165 208.346 L
354.474 222.531 L
344.783 236.715 L
335.092 250.9 L
325.402 265.085 L
315.711 279.27 LE
306.692 292.471 LS
315.711 279.27 LE
310.491 286.911 LS
313.859 307.087 LE
315.711 279.27 LS
328.34 292.418 LE
325.402 265.085 LS
338.031 278.233 LE
335.092 250.9 LS
347.722 264.048 LE
344.783 236.715 LS
357.412 249.863 LE
354.474 222.531 LS
367.103 235.679 LE
364.165 208.346 LS
376.794 221.494 LE
373.855 194.161 LS
386.485 207.309 LE
383.546 179.977 LS
396.175 193.125 LE
393.237 165.792 LS
405.866 178.94 LE
410.993 160.004 LS
415.557 164.755 LE
417.584 161.788 LS
415.557 164.755 L
405.866 178.94 L
396.175 193.125 L
386.485 207.309 L
376.794 221.494 L
367.103 235.679 L
357.412 249.863 L
347.722 264.048 L
338.031 278.233 L
328.34 292.418 LE
326.757 294.735 LS
328.34 292.418 LE
331.029 295.217 LS
328.34 292.418 LE
338.031 278.233 LS
350.66 291.381 LE
347.722 264.048 LS
360.351 277.196 LE
357.412 249.863 LS
370.042 263.011 LE
367.103 235.679 LS
379.732 248.827 LE
376.794 221.494 LS
389.423 234.642 LE
386.485 207.309 LS
399.114 220.457 LE
396.175 193.125 LS
408.805 206.272 LE
405.866 178.94 LS
418.495 192.088 LE
415.557 164.755 LS
428.186 177.903 LE
435.822 166.726 LS
428.186 177.903 L
418.495 192.088 L
408.805 206.272 L
399.114 220.457 L
389.423 234.642 L
379.732 248.827 L
370.042 263.011 L
360.351 277.196 L
350.66 291.381 LE
346.822 296.998 LS
350.66 291.381 LE
356.473 297.432 LS
350.66 291.381 LE
372.646 289.996 LS
360.351 277.196 LE
370.042 263.011 LS
382.671 276.159 LE
379.732 248.827 LS
392.362 261.974 LE
389.423 234.642 LS
402.052 247.79 LE
399.114 220.457 LS
411.743 233.605 LE
408.805 206.272 LS
421.434 219.42 LE
418.495 192.088 LS
431.125 205.236 LE
428.186 177.903 LS
440.815 191.051 LE
442.503 168.535 LS
450.506 176.866 LE
454.06 171.664 LS
450.506 176.866 L
440.815 191.051 L
431.125 205.236 L
421.434 219.42 L
411.743 233.605 L
402.052 247.79 L
392.362 261.974 L
382.671 276.159 LE
373.48 289.612 LS
382.671 276.159 LE
388.818 282.559 LS
382.671 276.159 LE
[0 3 1 3 1 3 1 3 1 0] 0 setdash
404.991 275.122 LS
404.991 274.37 LE
[] 0 setdash
392.362 261.974 LS
404.991 275.122 LE
402.052 247.79 LS
414.682 260.938 LE
411.743 233.605 LS
424.372 246.753 LE
421.434 219.42 LS
434.063 232.568 LE
[0 3 1 3 1 3 1 3 1 0] 0 setdash
443.754 218.384 LS
443.004 218.728 LE
[] 0 setdash
443.754 218.384 LS
434.063 232.568 L
424.372 246.753 L
414.682 260.938 L
404.991 275.122 LE
[0 3 1 3 1 3 1 3 1 0] 0 setdash
443.754 257.298 LS
443.754 217.631 LE
[] 0 setdash
431.125 205.236 LS
443.754 218.384 LE
440.815 191.051 LS
453.445 204.199 LE
450.506 176.866 LS
463.135 190.014 LE
472.299 176.602 LS
463.135 190.014 L
453.445 204.199 L
443.754 218.384 LE
[0 3 1 3 1 3 1 3 1 0] 0 setdash
443.754 218.384 LS
482.517 200.559 LE
482.517 239.473 LS
404.241 275.467 LE
[] 0 setdash
356.473 297.432 LS
357.178 298.167 LE
372.646 289.996 LS
372.98 290.344 LE
373.48 289.612 LS
372.98 290.344 LE
366.887 299.262 LS
372.98 290.344 LE
383.328 301.117 LS
372.98 290.344 LE
388.818 282.559 LS
395.3 289.307 LE
404.991 275.122 LS
395.3 289.307 LE
386.953 301.526 LS
395.3 289.307 LE
[0 3 1 3 1 3 1 3 1 0] 0 setdash
404.991 314.037 LS
386.953 322.331 LE
404.991 275.122 LS
404.991 331.761 LE
404.991 314.037 LS
443.754 296.212 LE
443.754 257.298 LS
443.754 335.127 LE
443.754 296.212 LS
482.517 278.388 LE
433.995 339.614 LS
482.517 317.302 LE
226.431 283.417 LS
74.88 242.385 LE
[16 0] 0 setdash
73.2779 243.122 LS
74.88 242.385 LE
[0 3 1 3 1 3 1 3 1 0] 0 setdash
175.914 308.654 LS
226.431 322.331 LE
175.914 269.74 LS
175.914 347.568 LE
175.914 308.654 LS
125.397 294.977 LE
125.397 256.063 LS
125.397 333.891 LE
125.397 294.977 LS
74.88 281.3 LE
[16 0] 0 setdash
73.2779 282.036 LS
74.88 281.3 LE
[] 0 setdash
313.859 307.087 LS
317.258 327.455 LE
[0 3 1 3 1 3 1 3 1 0] 0 setdash
404.991 331.761 LS
404.991 352.951 LE
433.995 339.614 LS
386.953 361.246 LE
226.431 361.246 LS
74.88 320.214 LE
[16 0] 0 setdash
73.2779 320.951 LS
74.88 320.214 LE
74.88 242.385 LS
74.88 320.214 LE
[0 3 1 3 1 3 1 3 1 0] 0 setdash
74.88 242.385 LS
74.88 320.214 LE
482.517 179.368 LS
482.517 317.302 LE
[] 0 setdash
221.669 132.218 LS
221.929 131.837 LE
237.267 124.784 LS
243.749 131.532 LE
253.44 117.348 LS
243.749 131.532 LE
241.734 134.482 LS
243.749 131.532 LE
247.171 135.095 LS
243.749 131.532 LE
253.44 117.348 LS
266.069 130.496 LE
271.678 122.286 LS
266.069 130.496 LE
261.799 136.745 LS
266.069 130.496 LE
273.321 138.045 LS
266.069 130.496 LE
284.951 125.879 LS
288.389 129.459 LE
289.916 127.223 LS
288.389 129.459 LE
281.865 139.009 LS
288.389 129.459 LE
299.47 140.995 LS
288.389 129.459 LE
301.93 141.272 LS
308.155 132.161 LE
316.461 134.41 LS
323.338 141.57 LE
326.393 137.099 LS
323.338 141.57 LE
321.995 143.536 LS
323.338 141.57 LE
294.211 189.384 LS
298.08 212.56 LE
300.862 229.227 LS
298.08 212.56 LE
325.62 143.945 LS
323.338 141.57 LE
342.06 145.8 LS
344.631 142.037 LE
351.769 146.895 LS
347.972 142.941 LE
362.126 148.063 LS
362.869 146.975 LE
[0 3 1 3 1 3 1 3 1 0] 0 setdash
482.517 200.559 LS
511.523 187.221 LE
482.517 239.473 LS
521.28 221.649 LE
482.517 278.388 LS
521.28 260.563 LE
482.517 317.302 LS
521.28 299.478 LE
521.28 133.225 LS
521.28 299.478 LE
[] 0 setdash
311.585 90.611 LS
324.214 94.0303 LE
301.894 95.0671 LS
314.523 98.4864 LE
321.275 86.1549 LS
333.905 89.5742 LE
343.595 85.1181 LS
333.905 89.5742 L
324.214 94.0303 L
314.523 98.4864 L
304.832 102.943 LE
324.214 94.0303 LS
336.843 97.4496 LE
314.523 98.4864 LS
327.152 101.906 LE
333.905 89.5742 LS
346.534 92.9935 LE
356.225 88.5374 LS
346.534 92.9935 L
336.843 97.4496 L
327.152 101.906 LE
320.628 104.906 LS
327.152 101.906 LE
336.843 97.4496 LS
349.472 100.869 LE
338.233 104.906 LS
327.152 101.906 LE
346.534 92.9935 LS
359.163 96.4128 LE
368.854 91.9567 LS
359.163 96.4128 L
349.472 100.869 LE
340.693 104.906 LS
349.472 100.869 L
362.102 104.288 LE
359.163 96.4128 LS
371.792 99.8321 LE
[0 3 1 3 1 3 1 3 1 0] 0 setdash
360.758 104.906 LS
381.483 95.376 LE
[] 0 setdash
381.483 95.376 LS
371.792 99.8321 L
362.102 104.288 LE
360.758 104.906 LS
362.102 104.288 LE
364.383 104.906 LS
362.102 104.288 LE
371.792 99.8321 LS
384.422 103.251 LE
394.112 98.7953 LS
384.422 103.251 LE
380.823 104.906 LS
384.422 103.251 LE
390.532 104.906 LS
384.422 103.251 LE
400.889 104.906 LS
406.741 102.215 LE
[0 3 1 3 1 3 1 3 1 0] 0 setdash
312.084 104.906 LS
292.203 99.5232 LE
[] 0 setdash
292.203 99.5232 LS
304.832 102.943 LE
312.084 104.906 LS
304.832 102.943 LE
300.563 104.906 LS
304.832 102.943 LE
285.934 104.906 LS
282.512 103.979 LE
294.211 189.384 LS
280.138 105.071 LE
[0 3 1 3 1 3 1 3 1 0] 0 setdash
330.966 81.6988 LS
432.977 109.318 LE
[] 0 setdash
330.966 81.6988 LS
343.595 85.1181 L
356.225 88.5374 L
368.854 91.9567 L
381.483 95.376 L
394.112 98.7953 L
406.741 102.215 L
419.371 105.634 L
432 109.053 LE
340.657 77.2427 LS
353.286 80.662 LE
350.348 72.7866 LS
362.977 76.2059 LE
360.038 68.3305 LS
372.668 71.7498 LE
382.358 67.2936 LS
372.668 71.7498 L
362.977 76.2059 L
353.286 80.662 L
343.595 85.1181 LE
353.286 80.662 LS
365.915 84.0813 LE
362.977 76.2059 LS
375.606 79.6252 LE
372.668 71.7498 LS
385.297 75.1691 LE
394.988 70.7129 LS
385.297 75.1691 L
375.606 79.6252 L
365.915 84.0813 L
356.225 88.5374 LE
365.915 84.0813 LS
378.545 87.5006 LE
375.606 79.6252 LS
388.235 83.0444 LE
385.297 75.1691 LS
397.926 78.5883 LE
407.617 74.1322 LS
397.926 78.5883 L
388.235 83.0444 L
378.545 87.5006 L
368.854 91.9567 LE
378.545 87.5006 LS
391.174 90.9199 LE
388.235 83.0444 LS
400.865 86.4637 LE
397.926 78.5883 LS
410.555 82.0076 LE
[0 3 1 3 1 3 1 3 1 0] 0 setdash
381.483 95.376 LS
420.246 77.5515 LE
[] 0 setdash
420.246 77.5515 LS
410.555 82.0076 L
400.865 86.4637 L
391.174 90.9199 L
381.483 95.376 LE
391.174 90.9199 LS
403.803 94.3391 LE
400.865 86.4637 LS
413.494 89.883 LE
410.555 82.0076 LS
423.185 85.4269 LE
432.875 80.9708 LS
423.185 85.4269 L
413.494 89.883 L
403.803 94.3391 L
394.112 98.7953 LE
403.803 94.3391 LS
416.432 97.7584 LE
413.494 89.883 LS
426.123 93.3023 LE
423.185 85.4269 LS
435.814 88.8462 LE
445.505 84.3901 LS
435.814 88.8462 L
426.123 93.3023 L
416.432 97.7584 L
406.741 102.215 LE
416.432 97.7584 LS
429.061 101.178 LE
426.123 93.3023 LS
438.752 96.7216 LE
435.814 88.8462 LS
448.443 92.2655 LE
458.134 87.8094 LS
448.443 92.2655 L
438.752 96.7216 L
429.061 101.178 L
419.371 105.634 LE
429.061 101.178 LS
441.691 104.597 LE
438.752 96.7216 LS
451.382 100.141 LE
448.443 92.2655 LS
461.072 95.6848 LE
[0 3 1 3 1 3 1 3 1 0] 0 setdash
432 109.053 LS
470.763 91.2287 LE
[] 0 setdash
470.763 91.2287 LS
461.072 95.6848 L
451.382 100.141 L
441.691 104.597 L
432 109.053 LE
441.691 104.597 LS
454.32 108.016 LE
451.382 100.141 LS
464.011 103.56 LE
461.072 95.6848 LS
473.701 99.1041 LE
483.392 94.648 LS
473.701 99.1041 L
464.011 103.56 L
454.32 108.016 LE
450.238 113.991 LS
454.32 108.016 LE
463.511 117.584 LS
454.32 108.016 LE
464.011 103.56 LS
476.64 106.98 LE
468.476 118.929 LS
476.64 106.98 LE
486.331 102.523 LS
476.64 106.98 L
489.269 120.127 LE
473.701 99.1041 LS
486.331 102.523 L
498.96 105.943 LE
496.021 98.0673 LS
486.331 102.523 LE
498.96 105.943 LS
489.269 120.127 LE
486.715 123.867 LS
489.269 120.127 LE
508.651 101.487 LS
498.96 105.943 LE
495.021 126.116 LS
489.269 120.127 LE
498.96 105.943 LS
511.589 119.091 LE
[0 3 1 3 1 3 1 3 1 0] 0 setdash
520.53 105.251 LS
521.28 104.906 LE
520.53 105.251 LS
521.28 104.906 LE
[] 0 setdash
521.28 104.906 LS
511.589 119.091 LE
504.953 128.805 LS
511.589 119.091 LE
[0 3 1 3 1 3 1 3 1 0] 0 setdash
521.28 133.225 LS
521.28 104.906 LE
[16 0] 0 setdash
268.695 36.52 LS
521.28 104.906 LE
[0 3 1 3 1 3 1 3 1 0] 0 setdash
268.695 36.52 LS
521.28 104.906 LE
[16 0] 0 setdash
268.695 36.52 LS
257.935 33.6068 LE
[] 0 setdash
268.695 36.52 LS
281.324 39.9393 L
293.954 43.3586 L
306.583 46.7779 L
319.212 50.1972 L
331.841 53.6165 L
344.471 57.0358 L
357.1 60.455 L
369.729 63.8743 L
382.358 67.2936 L
394.988 70.7129 L
407.617 74.1322 L
420.246 77.5515 L
432.875 80.9708 L
445.505 84.3901 L
458.134 87.8094 L
470.763 91.2287 L
483.392 94.648 L
496.021 98.0673 L
508.651 101.487 L
521.28 104.906 LE
(0) 253.115 32.3016 10 /Helvetica STR
[16 0] 0 setdash
268.695 36.52 LS
278.829 31.8601 LE
(0) 283.369 29.7724 10 /Helvetica STL
319.212 50.1972 LS
329.346 45.5373 LE
(0.2) 333.886 43.4496 10 /Helvetica STL
369.729 63.8743 LS
379.863 59.2145 LE
(0.4) 384.403 57.1267 10 /Helvetica STL
420.246 77.5515 LS
430.38 72.8917 LE
(0.6) 434.92 70.8039 10 /Helvetica STL
470.763 91.2287 LS
480.897 86.5689 LE
(0.8) 485.437 84.4811 10 /Helvetica STL
521.28 104.906 LS
531.414 100.246 LE
(1) 535.954 98.1583 10 /Helvetica STL
grestore
showpage
cleartomark
%%PageTrailer
%%Trailer
end
%%EOF
